tests/11.vcd
$date
	Fri Mar 27 10:53:37 2026
$end
$version
	Icarus Verilog
$end
$timescale
	1ns
$end
$scope module test $end
$var wire 1 ! txDone_2 $end
$var wire 1 " txDone_1 $end
$var wire 1 # txBusy_2 $end
$var wire 1 $ txBusy_1 $end
$var wire 1 % rxErr_2 $end
$var wire 1 & rxErr_1 $end
$var wire 1 ' rxDone_2 $end
$var wire 1 ( rxDone_1 $end
$var wire 8 ) rxByte_2 [7:0] $end
$var wire 8 * rxByte_1 [7:0] $end
$var wire 1 + rxBusy_2 $end
$var wire 1 , rxBusy_1 $end
$var wire 1 - bus_wire_2_1 $end
$var wire 1 . bus_wire_1_2 $end
$var parameter 32 / CLOCK_FREQ $end
$var parameter 32 0 ENABLED_BAUD_CLOCK_STEPS $end
$var real 1 1 SIM_STEP_FREQ $end
$var real 1 2 SIM_TIMESTEP_FACTOR $end
$var reg 1 3 clk $end
$var reg 1 4 en_1 $end
$var reg 1 5 en_2 $end
$var reg 8 6 txByte_1 [7:0] $end
$var reg 8 7 txByte_2 [7:0] $end
$var reg 1 8 txStart_1 $end
$var reg 1 9 txStart_2 $end
$var integer 32 : c [31:0] $end
$scope module uart1 $end
$var wire 1 3 clk $end
$var wire 8 ; in [7:0] $end
$var wire 1 5 rxEn $end
$var wire 1 4 txEn $end
$var wire 1 8 txStart $end
$var wire 1 " txDone $end
$var wire 1 < txClk $end
$var wire 1 $ txBusy $end
$var wire 1 . tx $end
$var wire 1 & rxErr $end
$var wire 1 ( rxDone $end
$var wire 1 = rxClk $end
$var wire 1 , rxBusy $end
$var wire 1 - rx $end
$var wire 8 > out [7:0] $end
$var parameter 32 ? BAUD_RATE $end
$var parameter 32 @ CLOCK_RATE $end
$var parameter 32 A RX_OVERSAMPLE_RATE $end
$var parameter 32 B TURBO_FRAMES $end
$scope module generatorInst $end
$var wire 1 3 clk $end
$var parameter 32 C BAUD_RATE $end
$var parameter 32 D CLOCK_RATE $end
$var parameter 96 E RX_ACC_MAX $end
$var parameter 32 F RX_ACC_WIDTH $end
$var parameter 32 G RX_OVERSAMPLE_RATE $end
$var parameter 64 H TX_ACC_MAX $end
$var parameter 32 I TX_ACC_WIDTH $end
$var reg 1 = rxClk $end
$var reg 6 J rx_counter [5:0] $end
$var reg 1 < txClk $end
$var reg 10 K tx_counter [9:0] $end
$upscope $end
$scope module rxInst $end
$var wire 1 = clk $end
$var wire 1 5 en $end
$var wire 1 L in_sample $end
$var wire 4 M in_prior_hold_reg [3:0] $end
$var wire 4 N in_current_hold_reg [3:0] $end
$var wire 1 - in $end
$var reg 3 O bit_index [2:0] $end
$var reg 1 , busy $end
$var reg 1 ( done $end
$var reg 1 & err $end
$var reg 5 P in_hold_reg [4:0] $end
$var reg 2 Q in_reg [1:0] $end
$var reg 8 R out [7:0] $end
$var reg 5 S out_hold_count [4:0] $end
$var reg 8 T received_data [7:0] $end
$var reg 4 U sample_count [3:0] $end
$var reg 3 V state [2:0] $end
$upscope $end
$scope module txInst $end
$var wire 1 < clk $end
$var wire 1 4 en $end
$var wire 8 W in [7:0] $end
$var wire 1 8 start $end
$var parameter 32 X TURBO_FRAMES $end
$var reg 3 Y bit_index [2:0] $end
$var reg 1 $ busy $end
$var reg 1 " done $end
$var reg 8 Z in_data [7:0] $end
$var reg 1 . out $end
$var reg 3 [ state [2:0] $end
$upscope $end
$upscope $end
$scope module uart2 $end
$var wire 1 3 clk $end
$var wire 8 \ in [7:0] $end
$var wire 1 . rx $end
$var wire 1 4 rxEn $end
$var wire 1 5 txEn $end
$var wire 1 9 txStart $end
$var wire 1 ! txDone $end
$var wire 1 ] txClk $end
$var wire 1 # txBusy $end
$var wire 1 - tx $end
$var wire 1 % rxErr $end
$var wire 1 ' rxDone $end
$var wire 1 ^ rxClk $end
$var wire 1 + rxBusy $end
$var wire 8 _ out [7:0] $end
$var parameter 32 ` BAUD_RATE $end
$var parameter 32 a CLOCK_RATE $end
$var parameter 32 b RX_OVERSAMPLE_RATE $end
$var parameter 32 c TURBO_FRAMES $end
$scope module generatorInst $end
$var wire 1 3 clk $end
$var parameter 32 d BAUD_RATE $end
$var parameter 32 e CLOCK_RATE $end
$var parameter 96 f RX_ACC_MAX $end
$var parameter 32 g RX_ACC_WIDTH $end
$var parameter 32 h RX_OVERSAMPLE_RATE $end
$var parameter 64 i TX_ACC_MAX $end
$var parameter 32 j TX_ACC_WIDTH $end
$var reg 1 ^ rxClk $end
$var reg 6 k rx_counter [5:0] $end
$var reg 1 ] txClk $end
$var reg 10 l tx_counter [9:0] $end
$upscope $end
$scope module rxInst $end
$var wire 1 ^ clk $end
$var wire 1 4 en $end
$var wire 1 . in $end
$var wire 1 m in_sample $end
$var wire 4 n in_prior_hold_reg [3:0] $end
$var wire 4 o in_current_hold_reg [3:0] $end
$var reg 3 p bit_index [2:0] $end
$var reg 1 + busy $end
$var reg 1 ' done $end
$var reg 1 % err $end
$var reg 5 q in_hold_reg [4:0] $end
$var reg 2 r in_reg [1:0] $end
$var reg 8 s out [7:0] $end
$var reg 5 t out_hold_count [4:0] $end
$var reg 8 u received_data [7:0] $end
$var reg 4 v sample_count [3:0] $end
$var reg 3 w state [2:0] $end
$upscope $end
$scope module txInst $end
$var wire 1 ] clk $end
$var wire 1 5 en $end
$var wire 8 x in [7:0] $end
$var wire 1 9 start $end
$var parameter 32 y TURBO_FRAMES $end
$var reg 3 z bit_index [2:0] $end
$var reg 1 # busy $end
$var reg 1 ! done $end
$var reg 8 { in_data [7:0] $end
$var reg 1 - out $end
$var reg 3 | state [2:0] $end
$upscope $end
$upscope $end
$scope begin $unm_blk_70 $end
$var integer 32 } t [31:0] $end
$upscope $end
$upscope $end
$enddefinitions $end
$comment Show the parameter values. $end
$dumpall
b0 y
b1010 j
b1001110001 i
b10000 h
b110 g
b100111 f
b101101110001101100000000 e
b10010110000000 d
b0 c
b10000 b
b101101110001101100000000 a
b10010110000000 `
b0 X
b1010 I
b1001110001 H
b10000 G
b110 F
b100111 E
b101101110001101100000000 D
b10010110000000 C
b0 B
b10000 A
b101101110001101100000000 @
b10010110000000 ?
r0.4166666666666667 2
r5000000 1
b1101 0
b101101110001101100000000 /
$end
#0
$dumpvars
bx }
b0 |
b0 {
b0 z
bx x
b0 w
b0 v
b0 u
b0 t
bx s
b0 r
b0 q
b0 p
b0 o
b0 n
0m
b0 l
b0 k
bx _
0^
0]
bx \
b0 [
b0 Z
b0 Y
bx W
b0 V
b0 U
b0 T
b0 S
bx R
b0 Q
b0 P
b0 O
b0 N
b0 M
0L
b0 K
b0 J
bx >
0=
0<
bx ;
b1 :
x9
x8
bx 7
bx 6
x5
x4
03
x.
x-
x,
x+
bx *
bx )
x(
x'
x&
x%
x$
x#
x"
x!
$end
#42
b1 K
b1 J
b1 l
b1 k
13
#84
03
#126
b10 l
b10 k
b10 K
b10 J
13
#168
03
#210
b11 K
b11 J
b11 l
b11 k
13
#252
03
#294
b100 l
b100 k
b100 K
b100 J
13
#336
03
#378
b101 K
b101 J
b101 l
b101 k
13
#420
03
#462
b110 l
b110 k
b110 K
b110 J
13
#504
03
#546
b111 K
b111 J
b111 l
b111 k
13
#588
03
#630
b1000 l
b1000 k
b1000 K
b1000 J
13
#672
03
#714
b1001 K
b1001 J
b1001 l
b1001 k
13
#756
03
#798
b1010 l
b1010 k
b1010 K
b1010 J
13
#840
03
#882
b1011 K
b1011 J
b1011 l
b1011 k
13
#924
03
#966
b1100 l
b1100 k
b1100 K
b1100 J
13
#1008
03
#1050
b1101 K
b1101 J
b1101 l
b1101 k
13
#1092
03
#1134
b1110 l
b1110 k
b1110 K
b1110 J
13
#1176
03
#1218
b1111 K
b1111 J
b1111 l
b1111 k
13
#1260
03
#1302
b10000 l
b10000 k
b10000 K
b10000 J
13
#1344
03
#1386
b10001 K
b10001 J
b10001 l
b10001 k
13
#1428
03
#1470
b10010 l
b10010 k
b10010 K
b10010 J
13
#1512
03
#1554
b10011 K
b10011 J
b10011 l
b10011 k
13
#1596
03
#1638
b10100 l
b10100 k
b10100 K
b10100 J
13
#1680
03
#1722
b10101 K
b10101 J
b10101 l
b10101 k
13
#1764
03
#1806
b10110 l
b10110 k
b10110 K
b10110 J
13
#1848
03
#1890
b10111 K
b10111 J
b10111 l
b10111 k
13
#1932
03
#1974
b11000 l
b11000 k
b11000 K
b11000 J
13
#2016
03
#2058
b11001 K
b11001 J
b11001 l
b11001 k
13
#2100
03
#2142
b11010 l
b11010 k
b11010 K
b11010 J
13
#2184
03
#2226
b11011 K
b11011 J
b11011 l
b11011 k
13
#2268
03
#2310
b11100 l
b11100 k
b11100 K
b11100 J
13
#2352
03
#2394
b11101 K
b11101 J
b11101 l
b11101 k
13
#2436
03
#2478
b11110 l
b11110 k
b11110 K
b11110 J
13
#2520
03
#2562
b11111 K
b11111 J
b11111 l
b11111 k
13
#2604
03
#2646
b100000 l
b100000 k
b100000 K
b100000 J
13
#2688
03
#2730
b100001 K
b100001 J
b100001 l
b100001 k
13
#2772
03
#2814
b100010 l
b100010 k
b100010 K
b100010 J
13
#2856
03
#2898
b100011 K
b100011 J
b100011 l
b100011 k
13
#2940
03
#2982
b100100 l
b100100 k
b100100 K
b100100 J
13
#3024
03
#3066
b100101 K
b100101 J
b100101 l
b100101 k
13
#3108
03
#3150
b100110 l
b100110 k
b100110 K
b100110 J
13
#3192
03
#3234
b100111 K
b100111 J
b100111 l
b100111 k
13
#3276
03
#3318
b0x r
b0 )
b0 _
b0 s
0%
0'
0+
b0x Q
b0 *
b0 >
b0 R
0&
0(
0,
b101000 l
1^
b0 k
b101000 K
1=
b0 J
13
#3360
03
#3402
b101001 K
b1 J
b101001 l
b1 k
13
#3444
03
#3486
b101010 l
b10 k
b101010 K
b10 J
13
#3528
03
#3570
b101011 K
b11 J
b101011 l
b11 k
13
#3612
03
#3654
b101100 l
b100 k
b101100 K
b100 J
13
#3696
03
#3738
b101101 K
b101 J
b101101 l
b101 k
13
#3780
03
#3822
b101110 l
b110 k
b101110 K
b110 J
13
#3864
03
#3906
b101111 K
b111 J
b101111 l
b111 k
13
#3948
03
#3990
b110000 l
b1000 k
b110000 K
b1000 J
13
#4032
03
#4074
b110001 K
b1001 J
b110001 l
b1001 k
13
#4116
03
#4158
b110010 l
b1010 k
b110010 K
b1010 J
13
#4200
03
#4242
b110011 K
b1011 J
b110011 l
b1011 k
13
#4284
03
#4326
b110100 l
b1100 k
b110100 K
b1100 J
13
#4368
03
#4410
b110101 K
b1101 J
b110101 l
b1101 k
13
#4452
03
#4494
b110110 l
b1110 k
b110110 K
b1110 J
13
#4536
03
#4578
b110111 K
b1111 J
b110111 l
b1111 k
13
#4620
03
#4662
b111000 l
b10000 k
b111000 K
b10000 J
13
#4704
03
#4746
b111001 K
b10001 J
b111001 l
b10001 k
13
#4788
03
#4830
b111010 l
b10010 k
b111010 K
b10010 J
13
#4872
03
#4914
b111011 K
b10011 J
b111011 l
b10011 k
13
#4956
03
#4998
b111100 l
b10100 k
b111100 K
b10100 J
13
#5040
03
#5082
b111101 K
b10101 J
b111101 l
b10101 k
13
#5124
03
#5166
b111110 l
b10110 k
b111110 K
b10110 J
13
#5208
03
#5250
b111111 K
b10111 J
b111111 l
b10111 k
13
#5292
03
#5334
b1000000 l
b11000 k
b1000000 K
b11000 J
13
#5376
03
#5418
b1000001 K
b11001 J
b1000001 l
b11001 k
13
#5460
03
#5502
b1000010 l
b11010 k
b1000010 K
b11010 J
13
#5544
03
#5586
b1000011 K
b11011 J
b1000011 l
b11011 k
13
#5628
03
#5670
b1000100 l
b11100 k
b1000100 K
b11100 J
13
#5712
03
#5754
b1000101 K
b11101 J
b1000101 l
b11101 k
13
#5796
03
#5838
b1000110 l
b11110 k
b1000110 K
b11110 J
13
#5880
03
#5922
b1000111 K
b11111 J
b1000111 l
b11111 k
13
#5964
03
#6006
b1001000 l
b100000 k
b1001000 K
b100000 J
13
#6048
03
#6090
b1001001 K
b100001 J
b1001001 l
b100001 k
13
#6132
03
#6174
b1001010 l
b100010 k
b1001010 K
b100010 J
13
#6216
03
#6258
b1001011 K
b100011 J
b1001011 l
b100011 k
13
#6300
03
#6342
b1001100 l
b100100 k
b1001100 K
b100100 J
13
#6384
03
#6426
b1001101 K
b100101 J
b1001101 l
b100101 k
13
#6468
03
#6510
b1001110 l
b100110 k
b1001110 K
b100110 J
13
#6552
03
#6594
b1001111 K
b100111 J
b1001111 l
b100111 k
13
#6636
03
#6678
b1010000 l
0^
b0 k
b1010000 K
0=
b0 J
13
#6720
03
#6762
b1010001 K
b1 J
b1010001 l
b1 k
13
#6804
03
#6846
b1010010 l
b10 k
b1010010 K
b10 J
13
#6888
03
#6930
b1010011 K
b11 J
b1010011 l
b11 k
13
#6972
03
#7014
b1010100 l
b100 k
b1010100 K
b100 J
13
#7056
03
#7098
b1010101 K
b101 J
b1010101 l
b101 k
13
#7140
03
#7182
b1010110 l
b110 k
b1010110 K
b110 J
13
#7224
03
#7266
b1010111 K
b111 J
b1010111 l
b111 k
13
#7308
03
#7350
b1011000 l
b1000 k
b1011000 K
b1000 J
13
#7392
03
#7434
b1011001 K
b1001 J
b1011001 l
b1001 k
13
#7476
03
#7518
b1011010 l
b1010 k
b1011010 K
b1010 J
13
#7560
03
#7602
b1011011 K
b1011 J
b1011011 l
b1011 k
13
#7644
03
#7686
b1011100 l
b1100 k
b1011100 K
b1100 J
13
#7728
03
#7770
b1011101 K
b1101 J
b1011101 l
b1101 k
13
#7812
03
#7854
b1011110 l
b1110 k
b1011110 K
b1110 J
13
#7896
03
#7938
b1011111 K
b1111 J
b1011111 l
b1111 k
13
#7980
03
#8022
b1100000 l
b10000 k
b1100000 K
b10000 J
13
#8064
03
#8106
b1100001 K
b10001 J
b1100001 l
b10001 k
13
#8148
03
#8190
b1100010 l
b10010 k
b1100010 K
b10010 J
13
#8232
03
#8274
b1100011 K
b10011 J
b1100011 l
b10011 k
13
#8316
03
#8358
b1100100 l
b10100 k
b1100100 K
b10100 J
13
#8400
03
#8442
b1100101 K
b10101 J
b1100101 l
b10101 k
13
#8484
03
#8526
b1100110 l
b10110 k
b1100110 K
b10110 J
13
#8568
03
#8610
b1100111 K
b10111 J
b1100111 l
b10111 k
13
#8652
03
#8694
b1101000 l
b11000 k
b1101000 K
b11000 J
13
#8736
03
#8778
b1101001 K
b11001 J
b1101001 l
b11001 k
13
#8820
03
#8862
b1101010 l
b11010 k
b1101010 K
b11010 J
13
#8904
03
#8946
b1101011 K
b11011 J
b1101011 l
b11011 k
13
#8988
03
#9030
b1101100 l
b11100 k
b1101100 K
b11100 J
13
#9072
03
#9114
b1101101 K
b11101 J
b1101101 l
b11101 k
13
#9156
03
#9198
b1101110 l
b11110 k
b1101110 K
b11110 J
13
#9240
03
#9282
b1101111 K
b11111 J
b1101111 l
b11111 k
13
#9324
03
#9366
b1110000 l
b100000 k
b1110000 K
b100000 J
13
#9408
03
#9450
b1110001 K
b100001 J
b1110001 l
b100001 k
13
#9492
03
#9534
b1110010 l
b100010 k
b1110010 K
b100010 J
13
#9576
03
#9618
b1110011 K
b100011 J
b1110011 l
b100011 k
13
#9660
03
#9702
b1110100 l
b100100 k
b1110100 K
b100100 J
13
#9744
03
#9786
b1110101 K
b100101 J
b1110101 l
b100101 k
13
#9828
03
#9870
b1110110 l
b100110 k
b1110110 K
b100110 J
13
#9912
03
#9954
b1110111 K
b100111 J
b1110111 l
b100111 k
13
#9996
03
#10038
b0x o
xm
b0x N
xL
b0x q
bx r
b0x P
bx Q
b1111000 l
1^
b0 k
b1111000 K
1=
b0 J
13
#10080
03
#10122
b1111001 K
b1 J
b1111001 l
b1 k
13
#10164
03
#10206
b1111010 l
b10 k
b1111010 K
b10 J
13
#10248
03
#10290
b1111011 K
b11 J
b1111011 l
b11 k
13
#10332
03
#10374
b1111100 l
b100 k
b1111100 K
b100 J
13
#10416
03
#10458
b1111101 K
b101 J
b1111101 l
b101 k
13
#10500
03
#10542
b1111110 l
b110 k
b1111110 K
b110 J
13
#10584
03
#10626
b1111111 K
b111 J
b1111111 l
b111 k
13
#10668
03
#10710
b10000000 l
b1000 k
b10000000 K
b1000 J
13
#10752
03
#10794
b10000001 K
b1001 J
b10000001 l
b1001 k
13
#10836
03
#10878
b10000010 l
b1010 k
b10000010 K
b1010 J
13
#10920
03
#10962
b10000011 K
b1011 J
b10000011 l
b1011 k
13
#11004
03
#11046
b10000100 l
b1100 k
b10000100 K
b1100 J
13
#11088
03
#11130
b10000101 K
b1101 J
b10000101 l
b1101 k
13
#11172
03
#11214
b10000110 l
b1110 k
b10000110 K
b1110 J
13
#11256
03
#11298
b10000111 K
b1111 J
b10000111 l
b1111 k
13
#11340
03
#11382
b10001000 l
b10000 k
b10001000 K
b10000 J
13
#11424
03
#11466
b10001001 K
b10001 J
b10001001 l
b10001 k
13
#11508
03
#11550
b10001010 l
b10010 k
b10001010 K
b10010 J
13
#11592
03
#11634
b10001011 K
b10011 J
b10001011 l
b10011 k
13
#11676
03
#11718
b10001100 l
b10100 k
b10001100 K
b10100 J
13
#11760
03
#11802
b10001101 K
b10101 J
b10001101 l
b10101 k
13
#11844
03
#11886
b10001110 l
b10110 k
b10001110 K
b10110 J
13
#11928
03
#11970
b10001111 K
b10111 J
b10001111 l
b10111 k
13
#12012
03
#12054
b10010000 l
b11000 k
b10010000 K
b11000 J
13
#12096
03
#12138
b10010001 K
b11001 J
b10010001 l
b11001 k
13
#12180
03
#12222
b10010010 l
b11010 k
b10010010 K
b11010 J
13
#12264
03
#12306
b10010011 K
b11011 J
b10010011 l
b11011 k
13
#12348
03
#12390
b10010100 l
b11100 k
b10010100 K
b11100 J
13
#12432
03
#12474
b10010101 K
b11101 J
b10010101 l
b11101 k
13
#12516
03
#12558
b10010110 l
b11110 k
b10010110 K
b11110 J
13
#12600
03
#12642
b10010111 K
b11111 J
b10010111 l
b11111 k
13
#12684
03
#12726
b10011000 l
b100000 k
b10011000 K
b100000 J
13
#12768
03
#12810
b10011001 K
b100001 J
b10011001 l
b100001 k
13
#12852
03
#12894
b10011010 l
b100010 k
b10011010 K
b100010 J
13
#12936
03
#12978
b10011011 K
b100011 J
b10011011 l
b100011 k
13
#13020
03
#13062
b10011100 l
b100100 k
b10011100 K
b100100 J
13
#13104
03
#13146
b10011101 K
b100101 J
b10011101 l
b100101 k
13
#13188
03
#13230
b10011110 l
b100110 k
b10011110 K
b100110 J
13
#13272
03
#13314
b10011111 K
b100111 J
b10011111 l
b100111 k
13
#13356
03
#13398
b10100000 l
0^
b0 k
b10100000 K
0=
b0 J
13
#13440
03
#13482
b10100001 K
b1 J
b10100001 l
b1 k
13
#13524
03
#13566
b10100010 l
b10 k
b10100010 K
b10 J
13
#13608
03
#13650
b10100011 K
b11 J
b10100011 l
b11 k
13
#13692
03
#13734
b10100100 l
b100 k
b10100100 K
b100 J
13
#13776
03
#13818
b10100101 K
b101 J
b10100101 l
b101 k
13
#13860
03
#13902
b10100110 l
b110 k
b10100110 K
b110 J
13
#13944
03
#13986
b10100111 K
b111 J
b10100111 l
b111 k
13
#14028
03
#14070
b10101000 l
b1000 k
b10101000 K
b1000 J
13
#14112
03
#14154
b10101001 K
b1001 J
b10101001 l
b1001 k
13
#14196
03
#14238
b10101010 l
b1010 k
b10101010 K
b1010 J
13
#14280
03
#14322
b10101011 K
b1011 J
b10101011 l
b1011 k
13
#14364
03
#14406
b10101100 l
b1100 k
b10101100 K
b1100 J
13
#14448
03
#14490
b10101101 K
b1101 J
b10101101 l
b1101 k
13
#14532
03
#14574
b10101110 l
b1110 k
b10101110 K
b1110 J
13
#14616
03
#14658
b10101111 K
b1111 J
b10101111 l
b1111 k
13
#14700
03
#14742
b10110000 l
b10000 k
b10110000 K
b10000 J
13
#14784
03
#14826
b10110001 K
b10001 J
b10110001 l
b10001 k
13
#14868
03
#14910
b10110010 l
b10010 k
b10110010 K
b10010 J
13
#14952
03
#14994
b10110011 K
b10011 J
b10110011 l
b10011 k
13
#15036
03
#15078
b10110100 l
b10100 k
b10110100 K
b10100 J
13
#15120
03
#15162
b10110101 K
b10101 J
b10110101 l
b10101 k
13
#15204
03
#15246
b10110110 l
b10110 k
b10110110 K
b10110 J
13
#15288
03
#15330
b10110111 K
b10111 J
b10110111 l
b10111 k
13
#15372
03
#15414
b10111000 l
b11000 k
b10111000 K
b11000 J
13
#15456
03
#15498
b10111001 K
b11001 J
b10111001 l
b11001 k
13
#15540
03
#15582
b10111010 l
b11010 k
b10111010 K
b11010 J
13
#15624
03
#15666
b10111011 K
b11011 J
b10111011 l
b11011 k
13
#15708
03
#15750
b10111100 l
b11100 k
b10111100 K
b11100 J
13
#15792
03
#15834
b10111101 K
b11101 J
b10111101 l
b11101 k
13
#15876
03
#15918
b10111110 l
b11110 k
b10111110 K
b11110 J
13
#15960
03
#16002
b10111111 K
b11111 J
b10111111 l
b11111 k
13
#16044
03
#16086
b11000000 l
b100000 k
b11000000 K
b100000 J
13
#16128
03
#16170
b11000001 K
b100001 J
b11000001 l
b100001 k
13
#16212
03
#16254
b11000010 l
b100010 k
b11000010 K
b100010 J
13
#16296
03
#16338
b11000011 K
b100011 J
b11000011 l
b100011 k
13
#16380
03
#16422
b11000100 l
b100100 k
b11000100 K
b100100 J
13
#16464
03
#16506
b11000101 K
b100101 J
b11000101 l
b100101 k
13
#16548
03
#16590
b11000110 l
b100110 k
b11000110 K
b100110 J
13
#16632
03
#16674
b11000111 K
b100111 J
b11000111 l
b100111 k
13
#16716
03
#16758
b0x n
b0xx o
b0x M
b0xx N
b0xx q
b0xx P
b11001000 l
1^
b0 k
b11001000 K
1=
b0 J
13
#16800
03
#16842
b11001001 K
b1 J
b11001001 l
b1 k
13
#16884
03
#16926
b11001010 l
b10 k
b11001010 K
b10 J
13
#16968
03
#17010
b11001011 K
b11 J
b11001011 l
b11 k
13
#17052
03
#17094
b11001100 l
b100 k
b11001100 K
b100 J
13
#17136
03
#17178
b11001101 K
b101 J
b11001101 l
b101 k
13
#17220
03
#17262
b11001110 l
b110 k
b11001110 K
b110 J
13
#17304
03
#17346
b11001111 K
b111 J
b11001111 l
b111 k
13
#17388
03
#17430
b11010000 l
b1000 k
b11010000 K
b1000 J
13
#17472
03
#17514
b11010001 K
b1001 J
b11010001 l
b1001 k
13
#17556
03
#17598
b11010010 l
b1010 k
b11010010 K
b1010 J
13
#17640
03
#17682
b11010011 K
b1011 J
b11010011 l
b1011 k
13
#17724
03
#17766
b11010100 l
b1100 k
b11010100 K
b1100 J
13
#17808
03
#17850
b11010101 K
b1101 J
b11010101 l
b1101 k
13
#17892
03
#17934
b11010110 l
b1110 k
b11010110 K
b1110 J
13
#17976
03
#18018
b11010111 K
b1111 J
b11010111 l
b1111 k
13
#18060
03
#18102
b11011000 l
b10000 k
b11011000 K
b10000 J
13
#18144
03
#18186
b11011001 K
b10001 J
b11011001 l
b10001 k
13
#18228
03
#18270
b11011010 l
b10010 k
b11011010 K
b10010 J
13
#18312
03
#18354
b11011011 K
b10011 J
b11011011 l
b10011 k
13
#18396
03
#18438
b11011100 l
b10100 k
b11011100 K
b10100 J
13
#18480
03
#18522
b11011101 K
b10101 J
b11011101 l
b10101 k
13
#18564
03
#18606
b11011110 l
b10110 k
b11011110 K
b10110 J
13
#18648
03
#18690
b11011111 K
b10111 J
b11011111 l
b10111 k
13
#18732
03
#18774
b11100000 l
b11000 k
b11100000 K
b11000 J
13
#18816
03
#18858
b11100001 K
b11001 J
b11100001 l
b11001 k
13
#18900
03
#18942
b11100010 l
b11010 k
b11100010 K
b11010 J
13
#18984
03
#19026
b11100011 K
b11011 J
b11100011 l
b11011 k
13
#19068
03
#19110
b11100100 l
b11100 k
b11100100 K
b11100 J
13
#19152
03
#19194
b11100101 K
b11101 J
b11100101 l
b11101 k
13
#19236
03
#19278
b11100110 l
b11110 k
b11100110 K
b11110 J
13
#19320
03
#19362
b11100111 K
b11111 J
b11100111 l
b11111 k
13
#19404
03
#19446
b11101000 l
b100000 k
b11101000 K
b100000 J
13
#19488
03
#19530
b11101001 K
b100001 J
b11101001 l
b100001 k
13
#19572
03
#19614
b11101010 l
b100010 k
b11101010 K
b100010 J
13
#19656
03
#19698
b11101011 K
b100011 J
b11101011 l
b100011 k
13
#19740
03
#19782
b11101100 l
b100100 k
b11101100 K
b100100 J
13
#19824
03
#19866
b11101101 K
b100101 J
b11101101 l
b100101 k
13
#19908
03
#19950
b11101110 l
b100110 k
b11101110 K
b100110 J
13
#19992
03
#20034
b11101111 K
b100111 J
b11101111 l
b100111 k
13
#20076
03
#20118
b11110000 l
0^
b0 k
b11110000 K
0=
b0 J
13
#20160
03
#20202
b11110001 K
b1 J
b11110001 l
b1 k
13
#20244
03
#20286
b11110010 l
b10 k
b11110010 K
b10 J
13
#20328
03
#20370
b11110011 K
b11 J
b11110011 l
b11 k
13
#20412
03
#20454
b11110100 l
b100 k
b11110100 K
b100 J
13
#20496
03
#20538
b11110101 K
b101 J
b11110101 l
b101 k
13
#20580
03
#20622
b11110110 l
b110 k
b11110110 K
b110 J
13
#20664
03
#20706
b11110111 K
b111 J
b11110111 l
b111 k
13
#20748
03
#20790
b11111000 l
b1000 k
b11111000 K
b1000 J
13
#20832
03
#20874
b11111001 K
b1001 J
b11111001 l
b1001 k
13
#20916
03
#20958
b11111010 l
b1010 k
b11111010 K
b1010 J
13
#21000
03
#21042
b11111011 K
b1011 J
b11111011 l
b1011 k
13
#21084
03
#21126
b11111100 l
b1100 k
b11111100 K
b1100 J
13
#21168
03
#21210
b11111101 K
b1101 J
b11111101 l
b1101 k
13
#21252
03
#21294
b11111110 l
b1110 k
b11111110 K
b1110 J
13
#21336
03
#21378
b11111111 K
b1111 J
b11111111 l
b1111 k
13
#21420
03
#21462
b100000000 l
b10000 k
b100000000 K
b10000 J
13
#21504
03
#21546
b100000001 K
b10001 J
b100000001 l
b10001 k
13
#21588
03
#21630
b100000010 l
b10010 k
b100000010 K
b10010 J
13
#21672
03
#21714
b100000011 K
b10011 J
b100000011 l
b10011 k
13
#21756
03
#21798
b100000100 l
b10100 k
b100000100 K
b10100 J
13
#21840
03
#21882
b100000101 K
b10101 J
b100000101 l
b10101 k
13
#21924
03
#21966
b100000110 l
b10110 k
b100000110 K
b10110 J
13
#22008
03
#22050
b100000111 K
b10111 J
b100000111 l
b10111 k
13
#22092
03
#22134
b100001000 l
b11000 k
b100001000 K
b11000 J
13
#22176
03
#22218
b100001001 K
b11001 J
b100001001 l
b11001 k
13
#22260
03
#22302
b100001010 l
b11010 k
b100001010 K
b11010 J
13
#22344
03
#22386
b100001011 K
b11011 J
b100001011 l
b11011 k
13
#22428
03
#22470
b100001100 l
b11100 k
b100001100 K
b11100 J
13
#22512
03
#22554
b100001101 K
b11101 J
b100001101 l
b11101 k
13
#22596
03
#22638
b100001110 l
b11110 k
b100001110 K
b11110 J
13
#22680
03
#22722
b100001111 K
b11111 J
b100001111 l
b11111 k
13
#22764
03
#22806
b100010000 l
b100000 k
b100010000 K
b100000 J
13
#22848
03
#22890
b100010001 K
b100001 J
b100010001 l
b100001 k
13
#22932
03
#22974
b100010010 l
b100010 k
b100010010 K
b100010 J
13
#23016
03
#23058
b100010011 K
b100011 J
b100010011 l
b100011 k
13
#23100
03
#23142
b100010100 l
b100100 k
b100010100 K
b100100 J
13
#23184
03
#23226
b100010101 K
b100101 J
b100010101 l
b100101 k
13
#23268
03
#23310
b100010110 l
b100110 k
b100010110 K
b100110 J
13
#23352
03
#23394
b100010111 K
b100111 J
b100010111 l
b100111 k
13
#23436
03
#23478
b0xx n
b0xxx o
b0xx M
b0xxx N
b0xxx q
b0xxx P
b100011000 l
1^
b0 k
b100011000 K
1=
b0 J
13
#23520
03
#23562
b100011001 K
b1 J
b100011001 l
b1 k
13
#23604
03
#23646
b100011010 l
b10 k
b100011010 K
b10 J
13
#23688
03
#23730
b100011011 K
b11 J
b100011011 l
b11 k
13
#23772
03
#23814
b100011100 l
b100 k
b100011100 K
b100 J
13
#23856
03
#23898
b100011101 K
b101 J
b100011101 l
b101 k
13
#23940
03
#23982
b100011110 l
b110 k
b100011110 K
b110 J
13
#24024
03
#24066
b100011111 K
b111 J
b100011111 l
b111 k
13
#24108
03
#24150
b100100000 l
b1000 k
b100100000 K
b1000 J
13
#24192
03
#24234
b100100001 K
b1001 J
b100100001 l
b1001 k
13
#24276
03
#24318
b100100010 l
b1010 k
b100100010 K
b1010 J
13
#24360
03
#24402
b100100011 K
b1011 J
b100100011 l
b1011 k
13
#24444
03
#24486
b100100100 l
b1100 k
b100100100 K
b1100 J
13
#24528
03
#24570
b100100101 K
b1101 J
b100100101 l
b1101 k
13
#24612
03
#24654
b100100110 l
b1110 k
b100100110 K
b1110 J
13
#24696
03
#24738
b100100111 K
b1111 J
b100100111 l
b1111 k
13
#24780
03
#24822
b100101000 l
b10000 k
b100101000 K
b10000 J
13
#24864
03
#24906
b100101001 K
b10001 J
b100101001 l
b10001 k
13
#24948
03
#24990
b100101010 l
b10010 k
b100101010 K
b10010 J
13
#25032
03
#25074
b100101011 K
b10011 J
b100101011 l
b10011 k
13
#25116
03
#25158
b100101100 l
b10100 k
b100101100 K
b10100 J
13
#25200
03
#25242
b100101101 K
b10101 J
b100101101 l
b10101 k
13
#25284
03
#25326
b100101110 l
b10110 k
b100101110 K
b10110 J
13
#25368
03
#25410
b100101111 K
b10111 J
b100101111 l
b10111 k
13
#25452
03
#25494
b100110000 l
b11000 k
b100110000 K
b11000 J
13
#25536
03
#25578
b100110001 K
b11001 J
b100110001 l
b11001 k
13
#25620
03
#25662
b100110010 l
b11010 k
b100110010 K
b11010 J
13
#25704
03
#25746
b100110011 K
b11011 J
b100110011 l
b11011 k
13
#25788
03
