tests/1a.vcd
$date
	Fri Mar 27 10:53:43 2026
$end
$version
	Icarus Verilog
$end
$timescale
	1ns
$end
$scope module test $end
$var wire 1 ! txDone_1 $end
$var wire 1 " txBusy_1 $end
$var wire 1 # rxErr_1 $end
$var wire 1 $ rxDone_1 $end
$var wire 8 % rxByte_1 [7:0] $end
$var wire 1 & rxBusy_1 $end
$var wire 1 ' bus_wire $end
$var parameter 32 ( CLOCK_FREQ $end
$var parameter 32 ) ENABLED_BAUD_CLOCK_STEPS $end
$var real 1 * SIM_STEP_FREQ $end
$var real 1 + SIM_TIMESTEP_FACTOR $end
$var reg 1 , clk $end
$var reg 1 - en_1 $end
$var reg 8 . txByte_1 [7:0] $end
$var reg 1 / txStart_1 $end
$scope module uart1 $end
$var wire 1 , clk $end
$var wire 8 0 in [7:0] $end
$var wire 1 - rxEn $end
$var wire 1 - txEn $end
$var wire 1 / txStart $end
$var wire 1 ! txDone $end
$var wire 1 1 txClk $end
$var wire 1 " txBusy $end
$var wire 1 ' tx $end
$var wire 1 # rxErr $end
$var wire 1 $ rxDone $end
$var wire 1 2 rxClk $end
$var wire 1 & rxBusy $end
$var wire 1 ' rx $end
$var wire 8 3 out [7:0] $end
$var parameter 32 4 BAUD_RATE $end
$var parameter 32 5 CLOCK_RATE $end
$var parameter 32 6 RX_OVERSAMPLE_RATE $end
$var parameter 32 7 TURBO_FRAMES $end
$scope module generatorInst $end
$var wire 1 , clk $end
$var parameter 32 8 BAUD_RATE $end
$var parameter 32 9 CLOCK_RATE $end
$var parameter 96 : RX_ACC_MAX $end
$var parameter 32 ; RX_ACC_WIDTH $end
$var parameter 32 < RX_OVERSAMPLE_RATE $end
$var parameter 64 = TX_ACC_MAX $end
$var parameter 32 > TX_ACC_WIDTH $end
$var reg 1 2 rxClk $end
$var reg 6 ? rx_counter [5:0] $end
$var reg 1 1 txClk $end
$var reg 10 @ tx_counter [9:0] $end
$upscope $end
$scope module rxInst $end
$var wire 1 2 clk $end
$var wire 1 - en $end
$var wire 1 A in_sample $end
$var wire 4 B in_prior_hold_reg [3:0] $end
$var wire 4 C in_current_hold_reg [3:0] $end
$var wire 1 ' in $end
$var reg 3 D bit_index [2:0] $end
$var reg 1 & busy $end
$var reg 1 $ done $end
$var reg 1 # err $end
$var reg 5 E in_hold_reg [4:0] $end
$var reg 2 F in_reg [1:0] $end
$var reg 8 G out [7:0] $end
$var reg 5 H out_hold_count [4:0] $end
$var reg 8 I received_data [7:0] $end
$var reg 4 J sample_count [3:0] $end
$var reg 3 K state [2:0] $end
$upscope $end
$scope module txInst $end
$var wire 1 1 clk $end
$var wire 1 - en $end
$var wire 8 L in [7:0] $end
$var wire 1 / start $end
$var parameter 32 M TURBO_FRAMES $end
$var reg 3 N bit_index [2:0] $end
$var reg 1 " busy $end
$var reg 1 ! done $end
$var reg 8 O in_data [7:0] $end
$var reg 1 ' out $end
$var reg 3 P state [2:0] $end
$upscope $end
$upscope $end
$scope begin $unm_blk_67 $end
$var integer 32 Q t [31:0] $end
$upscope $end
$upscope $end
$enddefinitions $end
$comment Show the parameter values. $end
$dumpall
b0 M
b1010 >
b1001110001 =
b10000 <
b110 ;
b100111 :
b101101110001101100000000 9
b10010110000000 8
b0 7
b10000 6
b101101110001101100000000 5
b10010110000000 4
r0.4166666666666667 +
r5000000 *
b10001 )
b101101110001101100000000 (
$end
#0
$dumpvars
bx Q
b0 P
b0 O
b0 N
bx L
b0 K
b0 J
b0 I
b0 H
bx G
b0 F
b0 E
b0 D
b0 C
b0 B
0A
b0 @
b0 ?
bx 3
02
01
bx 0
x/
bx .
x-
0,
x'
x&
bx %
x$
x#
x"
x!
$end
#42
b1 @
b1 ?
1,
#84
0,
#126
b10 @
b10 ?
1,
#168
0,
#210
b11 @
b11 ?
1,
#252
0,
#294
b100 @
b100 ?
1,
#336
0,
#378
b101 @
b101 ?
1,
#420
0,
#462
b110 @
b110 ?
1,
#504
0,
#546
b111 @
b111 ?
1,
#588
0,
#630
b1000 @
b1000 ?
1,
#672
0,
#714
b1001 @
b1001 ?
1,
#756
0,
#798
b1010 @
b1010 ?
1,
#840
0,
#882
b1011 @
b1011 ?
1,
#924
0,
#966
b1100 @
b1100 ?
1,
#1008
0,
#1050
b1101 @
b1101 ?
1,
#1092
0,
#1134
b1110 @
b1110 ?
1,
#1176
0,
#1218
b1111 @
b1111 ?
1,
#1260
0,
#1302
b10000 @
b10000 ?
1,
#1344
0,
#1386
b10001 @
b10001 ?
1,
#1428
0,
#1470
b10010 @
b10010 ?
1,
#1512
0,
#1554
b10011 @
b10011 ?
1,
#1596
0,
#1638
b10100 @
b10100 ?
1,
#1680
0,
#1722
b10101 @
b10101 ?
1,
#1764
0,
#1806
b10110 @
b10110 ?
1,
#1848
0,
#1890
b10111 @
b10111 ?
1,
#1932
0,
#1974
b11000 @
b11000 ?
1,
#2016
0,
#2058
b11001 @
b11001 ?
1,
#2100
0,
#2142
b11010 @
b11010 ?
1,
#2184
0,
#2226
b11011 @
b11011 ?
1,
#2268
0,
#2310
b11100 @
b11100 ?
1,
#2352
0,
#2394
b11101 @
b11101 ?
1,
#2436
0,
#2478
b11110 @
b11110 ?
1,
#2520
0,
#2562
b11111 @
b11111 ?
1,
#2604
0,
#2646
b100000 @
b100000 ?
1,
#2688
0,
#2730
b100001 @
b100001 ?
1,
#2772
0,
#2814
b100010 @
b100010 ?
1,
#2856
0,
#2898
b100011 @
b100011 ?
1,
#2940
0,
#2982
b100100 @
b100100 ?
1,
#3024
0,
#3066
b100101 @
b100101 ?
1,
#3108
0,
#3150
b100110 @
b100110 ?
1,
#3192
0,
#3234
b100111 @
b100111 ?
1,
#3276
0,
#3318
b0x F
b0 %
b0 3
b0 G
0#
0$
0&
b101000 @
12
b0 ?
1,
#3360
0,
#3402
b101001 @
b1 ?
1,
#3444
0,
#3486
b101010 @
b10 ?
1,
#3528
0,
#3570
b101011 @
b11 ?
1,
#3612
0,
#3654
b101100 @
b100 ?
1,
#3696
0,
#3738
b101101 @
b101 ?
1,
#3780
0,
#3822
b101110 @
b110 ?
1,
#3864
0,
#3906
b101111 @
b111 ?
1,
#3948
0,
#3990
b110000 @
b1000 ?
1,
#4032
0,
#4074
b110001 @
b1001 ?
1,
#4116
0,
#4158
b110010 @
b1010 ?
1,
#4200
0,
#4242
b110011 @
b1011 ?
1,
#4284
0,
#4326
b110100 @
b1100 ?
1,
#4368
0,
#4410
b110101 @
b1101 ?
1,
#4452
0,
#4494
b110110 @
b1110 ?
1,
#4536
0,
#4578
b110111 @
b1111 ?
1,
#4620
0,
#4662
b111000 @
b10000 ?
1,
#4704
0,
#4746
b111001 @
b10001 ?
1,
#4788
0,
#4830
b111010 @
b10010 ?
1,
#4872
0,
#4914
b111011 @
b10011 ?
1,
#4956
0,
#4998
b111100 @
b10100 ?
1,
#5040
0,
#5082
b111101 @
b10101 ?
1,
#5124
0,
#5166
b111110 @
b10110 ?
1,
#5208
0,
#5250
b111111 @
b10111 ?
1,
#5292
0,
#5334
b1000000 @
b11000 ?
1,
#5376
0,
#5418
b1000001 @
b11001 ?
1,
#5460
0,
#5502
b1000010 @
b11010 ?
1,
#5544
0,
#5586
b1000011 @
b11011 ?
1,
#5628
0,
#5670
b1000100 @
b11100 ?
1,
#5712
0,
#5754
b1000101 @
b11101 ?
1,
#5796
0,
#5838
b1000110 @
b11110 ?
1,
#5880
0,
#5922
b1000111 @
b11111 ?
1,
#5964
0,
#6006
b1001000 @
b100000 ?
1,
#6048
0,
#6090
b1001001 @
b100001 ?
1,
#6132
0,
#6174
b1001010 @
b100010 ?
1,
#6216
0,
#6258
b1001011 @
b100011 ?
1,
#6300
0,
#6342
b1001100 @
b100100 ?
1,
#6384
0,
#6426
b1001101 @
b100101 ?
1,
#6468
0,
#6510
b1001110 @
b100110 ?
1,
#6552
0,
#6594
b1001111 @
b100111 ?
1,
#6636
0,
#6678
b1010000 @
02
b0 ?
1,
#6720
0,
#6762
b1010001 @
b1 ?
1,
#6804
0,
#6846
b1010010 @
b10 ?
1,
#6888
0,
#6930
b1010011 @
b11 ?
1,
#6972
0,
#7014
b1010100 @
b100 ?
1,
#7056
0,
#7098
b1010101 @
b101 ?
1,
#7140
0,
#7182
b1010110 @
b110 ?
1,
#7224
0,
#7266
b1010111 @
b111 ?
1,
#7308
0,
#7350
b1011000 @
b1000 ?
1,
#7392
0,
#7434
b1011001 @
b1001 ?
1,
#7476
0,
#7518
b1011010 @
b1010 ?
1,
#7560
0,
#7602
b1011011 @
b1011 ?
1,
#7644
0,
#7686
b1011100 @
b1100 ?
1,
#7728
0,
#7770
b1011101 @
b1101 ?
1,
#7812
0,
#7854
b1011110 @
b1110 ?
1,
#7896
0,
#7938
b1011111 @
b1111 ?
1,
#7980
0,
#8022
b1100000 @
b10000 ?
1,
#8064
0,
#8106
b1100001 @
b10001 ?
1,
#8148
0,
#8190
b1100010 @
b10010 ?
1,
#8232
0,
#8274
b1100011 @
b10011 ?
1,
#8316
0,
#8358
b1100100 @
b10100 ?
1,
#8400
0,
#8442
b1100101 @
b10101 ?
1,
#8484
0,
#8526
b1100110 @
b10110 ?
1,
#8568
0,
#8610
b1100111 @
b10111 ?
1,
#8652
0,
#8694
b1101000 @
b11000 ?
1,
#8736
0,
#8778
b1101001 @
b11001 ?
1,
#8820
0,
#8862
b1101010 @
b11010 ?
1,
#8904
0,
#8946
b1101011 @
b11011 ?
1,
#8988
0,
#9030
b1101100 @
b11100 ?
1,
#9072
0,
#9114
b1101101 @
b11101 ?
1,
#9156
0,
#9198
b1101110 @
b11110 ?
1,
#9240
0,
#9282
b1101111 @
b11111 ?
1,
#9324
0,
#9366
b1110000 @
b100000 ?
1,
#9408
0,
#9450
b1110001 @
b100001 ?
1,
#9492
0,
#9534
b1110010 @
b100010 ?
1,
#9576
0,
#9618
b1110011 @
b100011 ?
1,
#9660
0,
#9702
b1110100 @
b100100 ?
1,
#9744
0,
#9786
b1110101 @
b100101 ?
1,
#9828
0,
#9870
b1110110 @
b100110 ?
1,
#9912
0,
#9954
b1110111 @
b100111 ?
1,
#9996
0,
#10038
b0x C
xA
b0x E
bx F
b1111000 @
12
b0 ?
1,
#10080
0,
#10122
b1111001 @
b1 ?
1,
#10164
0,
#10206
b1111010 @
b10 ?
1,
#10248
0,
#10290
b1111011 @
b11 ?
1,
#10332
0,
#10374
b1111100 @
b100 ?
1,
#10416
0,
#10458
b1111101 @
b101 ?
1,
#10500
0,
#10542
b1111110 @
b110 ?
1,
#10584
0,
#10626
b1111111 @
b111 ?
1,
#10668
0,
#10710
b10000000 @
b1000 ?
1,
#10752
0,
#10794
b10000001 @
b1001 ?
1,
#10836
0,
#10878
b10000010 @
b1010 ?
1,
#10920
0,
#10962
b10000011 @
b1011 ?
1,
#11004
0,
#11046
b10000100 @
b1100 ?
1,
#11088
0,
#11130
b10000101 @
b1101 ?
1,
#11172
0,
#11214
b10000110 @
b1110 ?
1,
#11256
0,
#11298
b10000111 @
b1111 ?
1,
#11340
0,
#11382
b10001000 @
b10000 ?
1,
#11424
0,
#11466
b10001001 @
b10001 ?
1,
#11508
0,
#11550
b10001010 @
b10010 ?
1,
#11592
0,
#11634
b10001011 @
b10011 ?
1,
#11676
0,
#11718
b10001100 @
b10100 ?
1,
#11760
0,
#11802
b10001101 @
b10101 ?
1,
#11844
0,
#11886
b10001110 @
b10110 ?
1,
#11928
0,
#11970
b10001111 @
b10111 ?
1,
#12012
0,
#12054
b10010000 @
b11000 ?
1,
#12096
0,
#12138
b10010001 @
b11001 ?
1,
#12180
0,
#12222
b10010010 @
b11010 ?
1,
#12264
0,
#12306
b10010011 @
b11011 ?
1,
#12348
0,
#12390
b10010100 @
b11100 ?
1,
#12432
0,
#12474
b10010101 @
b11101 ?
1,
#12516
0,
#12558
b10010110 @
b11110 ?
1,
#12600
0,
#12642
b10010111 @
b11111 ?
1,
#12684
0,
#12726
b10011000 @
b100000 ?
1,
#12768
0,
#12810
b10011001 @
b100001 ?
1,
#12852
0,
#12894
b10011010 @
b100010 ?
1,
#12936
0,
#12978
b10011011 @
b100011 ?
1,
#13020
0,
#13062
b10011100 @
b100100 ?
1,
#13104
0,
#13146
b10011101 @
b100101 ?
1,
#13188
0,
#13230
b10011110 @
b100110 ?
1,
#13272
0,
#13314
b10011111 @
b100111 ?
1,
#13356
0,
#13398
b10100000 @
02
b0 ?
1,
#13440
0,
#13482
b10100001 @
b1 ?
1,
#13524
0,
#13566
b10100010 @
b10 ?
1,
#13608
0,
#13650
b10100011 @
b11 ?
1,
#13692
0,
#13734
b10100100 @
b100 ?
1,
#13776
0,
#13818
b10100101 @
b101 ?
1,
#13860
0,
#13902
b10100110 @
b110 ?
1,
#13944
0,
#13986
b10100111 @
b111 ?
1,
#14028
0,
#14070
b10101000 @
b1000 ?
1,
#14112
0,
#14154
b10101001 @
b1001 ?
1,
#14196
0,
#14238
b10101010 @
b1010 ?
1,
#14280
0,
#14322
b10101011 @
b1011 ?
1,
#14364
0,
#14406
b10101100 @
b1100 ?
1,
#14448
0,
#14490
b10101101 @
b1101 ?
1,
#14532
0,
#14574
b10101110 @
b1110 ?
1,
#14616
0,
#14658
b10101111 @
b1111 ?
1,
#14700
0,
#14742
b10110000 @
b10000 ?
1,
#14784
0,
#14826
b10110001 @
b10001 ?
1,
#14868
0,
#14910
b10110010 @
b10010 ?
1,
#14952
0,
#14994
b10110011 @
b10011 ?
1,
#15036
0,
#15078
b10110100 @
b10100 ?
1,
#15120
0,
#15162
b10110101 @
b10101 ?
1,
#15204
0,
#15246
b10110110 @
b10110 ?
1,
#15288
0,
#15330
b10110111 @
b10111 ?
1,
#15372
0,
#15414
b10111000 @
b11000 ?
1,
#15456
0,
#15498
b10111001 @
b11001 ?
1,
#15540
0,
#15582
b10111010 @
b11010 ?
1,
#15624
0,
#15666
b10111011 @
b11011 ?
1,
#15708
0,
#15750
b10111100 @
b11100 ?
1,
#15792
0,
#15834
b10111101 @
b11101 ?
1,
#15876
0,
#15918
b10111110 @
b11110 ?
1,
#15960
0,
#16002
b10111111 @
b11111 ?
1,
#16044
0,
#16086
b11000000 @
b100000 ?
1,
#16128
0,
#16170
b11000001 @
b100001 ?
1,
#16212
0,
#16254
b11000010 @
b100010 ?
1,
#16296
0,
#16338
b11000011 @
b100011 ?
1,
#16380
0,
#16422
b11000100 @
b100100 ?
1,
#16464
0,
#16506
b11000101 @
b100101 ?
1,
#16548
0,
#16590
b11000110 @
b100110 ?
1,
#16632
0,
#16674
b11000111 @
b100111 ?
1,
#16716
0,
#16758
b0x B
b0xx C
b0xx E
b11001000 @
12
b0 ?
1,
#16800
0,
#16842
b11001001 @
b1 ?
1,
#16884
0,
#16926
b11001010 @
b10 ?
1,
#16968
0,
#17010
b11001011 @
b11 ?
1,
#17052
0,
#17094
b11001100 @
b100 ?
1,
#17136
0,
#17178
b11001101 @
b101 ?
1,
#17220
0,
#17262
b11001110 @
b110 ?
1,
#17304
0,
#17346
b11001111 @
b111 ?
1,
#17388
0,
#17430
b11010000 @
b1000 ?
1,
#17472
0,
#17514
b11010001 @
b1001 ?
1,
#17556
0,
#17598
b11010010 @
b1010 ?
1,
#17640
0,
#17682
b11010011 @
b1011 ?
1,
#17724
0,
#17766
b11010100 @
b1100 ?
1,
#17808
0,
#17850
b11010101 @
b1101 ?
1,
#17892
0,
#17934
b11010110 @
b1110 ?
1,
#17976
0,
#18018
b11010111 @
b1111 ?
1,
#18060
0,
#18102
b11011000 @
b10000 ?
1,
#18144
0,
#18186
b11011001 @
b10001 ?
1,
#18228
0,
#18270
b11011010 @
b10010 ?
1,
#18312
0,
#18354
b11011011 @
b10011 ?
1,
#18396
0,
#18438
b11011100 @
b10100 ?
1,
#18480
0,
#18522
b11011101 @
b10101 ?
1,
#18564
0,
#18606
b11011110 @
b10110 ?
1,
#18648
0,
#18690
b11011111 @
b10111 ?
1,
#18732
0,
#18774
b11100000 @
b11000 ?
1,
#18816
0,
#18858
b11100001 @
b11001 ?
1,
#18900
0,
#18942
b11100010 @
b11010 ?
1,
#18984
0,
#19026
b11100011 @
b11011 ?
1,
#19068
0,
#19110
b11100100 @
b11100 ?
1,
#19152
0,
#19194
b11100101 @
b11101 ?
1,
#19236
0,
#19278
b11100110 @
b11110 ?
1,
#19320
0,
#19362
b11100111 @
b11111 ?
1,
#19404
0,
#19446
b11101000 @
b100000 ?
1,
#19488
0,
#19530
b11101001 @
b100001 ?
1,
#19572
0,
#19614
b11101010 @
b100010 ?
1,
#19656
0,
#19698
b11101011 @
b100011 ?
1,
#19740
0,
#19782
b11101100 @
b100100 ?
1,
#19824
0,
#19866
b11101101 @
b100101 ?
1,
#19908
0,
#19950
b11101110 @
b100110 ?
1,
#19992
0,
#20034
b11101111 @
b100111 ?
1,
#20076
0,
#20118
b11110000 @
02
b0 ?
1,
#20160
0,
#20202
b11110001 @
b1 ?
1,
#20244
0,
#20286
b11110010 @
b10 ?
1,
#20328
0,
#20370
b11110011 @
b11 ?
1,
#20412
0,
#20454
b11110100 @
b100 ?
1,
#20496
0,
#20538
b11110101 @
b101 ?
1,
#20580
0,
#20622
b11110110 @
b110 ?
1,
#20664
0,
#20706
b11110111 @
b111 ?
1,
#20748
0,
#20790
b11111000 @
b1000 ?
1,
#20832
0,
#20874
b11111001 @
b1001 ?
1,
#20916
0,
#20958
b11111010 @
b1010 ?
1,
#21000
0,
#21042
b11111011 @
b1011 ?
1,
#21084
0,
#21126
b11111100 @
b1100 ?
1,
#21168
0,
#21210
b11111101 @
b1101 ?
1,
#21252
0,
#21294
b11111110 @
b1110 ?
1,
#21336
0,
#21378
b11111111 @
b1111 ?
1,
#21420
0,
#21462
b100000000 @
b10000 ?
1,
#21504
0,
#21546
b100000001 @
b10001 ?
1,
#21588
0,
#21630
b100000010 @
b10010 ?
1,
#21672
0,
#21714
b100000011 @
b10011 ?
1,
#21756
0,
#21798
b100000100 @
b10100 ?
1,
#21840
0,
#21882
b100000101 @
b10101 ?
1,
#21924
0,
#21966
b100000110 @
b10110 ?
1,
#22008
0,
#22050
b100000111 @
b10111 ?
1,
#22092
0,
#22134
b100001000 @
b11000 ?
1,
#22176
0,
#22218
b100001001 @
b11001 ?
1,
#22260
0,
#22302
b100001010 @
b11010 ?
1,
#22344
0,
#22386
b100001011 @
b11011 ?
1,
#22428
0,
#22470
b100001100 @
b11100 ?
1,
#22512
0,
#22554
b100001101 @
b11101 ?
1,
#22596
0,
#22638
b100001110 @
b11110 ?
1,
#22680
0,
#22722
b100001111 @
b11111 ?
1,
#22764
0,
#22806
b100010000 @
b100000 ?
1,
#22848
0,
#22890
b100010001 @
b100001 ?
1,
#22932
0,
#22974
b100010010 @
b100010 ?
1,
#23016
0,
#23058
b100010011 @
b100011 ?
1,
#23100
0,
#23142
b100010100 @
b100100 ?
1,
#23184
0,
#23226
b100010101 @
b100101 ?
1,
#23268
0,
#23310
b100010110 @
b100110 ?
1,
#23352
0,
#23394
b100010111 @
b100111 ?
1,
#23436
0,
#23478
b0xx B
b0xxx C
b0xxx E
b100011000 @
12
b0 ?
1,
#23520
0,
#23562
b100011001 @
b1 ?
1,
#23604
0,
#23646
b100011010 @
b10 ?
1,
#23688
0,
#23730
b100011011 @
b11 ?
1,
#23772
0,
#23814
b100011100 @
b100 ?
1,
#23856
0,
#23898
b100011101 @
b101 ?
1,
#23940
0,
#23982
b100011110 @
b110 ?
1,
#24024
0,
#24066
b100011111 @
b111 ?
1,
#24108
0,
#24150
b100100000 @
b1000 ?
1,
#24192
0,
#24234
b100100001 @
b1001 ?
1,
#24276
0,
#24318
b100100010 @
b1010 ?
1,
#24360
0,
#24402
b100100011 @
b1011 ?
1,
#24444
0,
#24486
b100100100 @
b1100 ?
1,
#24528
0,
#24570
b100100101 @
b1101 ?
1,
#24612
0,
#24654
b100100110 @
b1110 ?
1,
#24696
0,
#24738
b100100111 @
b1111 ?
1,
#24780
0,
#24822
b100101000 @
b10000 ?
1,
#24864
0,
#24906
b100101001 @
b10001 ?
1,
#24948
0,
#24990
b100101010 @
b10010 ?
1,
#25032
0,
#25074
b100101011 @
b10011 ?
1,
#25116
0,
#25158
b100101100 @
b10100 ?
1,
#25200
0,
#25242
b100101101 @
b10101 ?
1,
#25284
0,
#25326
b100101110 @
b10110 ?
1,
#25368
0,
#25410
b100101111 @
b10111 ?
1,
#25452
0,
#25494
b100110000 @
b11000 ?
1,
#25536
0,
#25578
b100110001 @
b11001 ?
1,
#25620
0,
#25662
b100110010 @
b11010 ?
1,
#25704
0,
#25746
b100110011 @
b11011 ?
1,
#25788
0,
#25830
b100110100 @
b11100 ?
1,
#25872
0,
#25914
b100110101 @
b11101 ?
1,
#25956
0,
#25998
b100110110 @
b11110 ?
1,
#26040
0,
#26082
b100110111 @
b11111 ?
1,
#26124
0,
#26166
b100111000 @
b100000 ?
1,
#26208
0,
#26250
b100111001 @
b100001 ?
1,
#26292
0,
#26334
b100111010 @
b100010 ?
1,
#26376
0,
#26418
b100111011 @
b100011 ?
1,
#26460
0,
#26502
b100111100 @
b100100 ?
1,
#26544
0,
#26586
b100111101 @
b100101 ?
1,
#26628
0,
#26670
b100111110 @
b100110 ?
1,
#26712
0,
#26754
b100111111 @
b100111 ?
1,
#26796
0,
#26838
b101000000 @
02
b0 ?
1,
#26880
0,
#26922
b101000001 @
b1 ?
1,
#26964
0,
#27006
b101000010 @
b10 ?
1,
#27048
0,
#27090
b101000011 @
b11 ?
1,
#27132
0,
#27174
b101000100 @
b100 ?
1,
#27216
0,
#27258
b101000101 @
b101 ?
1,
#27300
0,
#27342
b101000110 @
b110 ?
1,
#27384
0,
#27426
b101000111 @
b111 ?
1,
#27468
0,
#27510
b101001000 @
b1000 ?
1,
#27552
0,
#27594
b101001001 @
b1001 ?
1,
#27636
0,
#27678
b101001010 @
b1010 ?
1,
#27720
0,
#27762
b101001011 @
b1011 ?
1,
#27804
0,
#27846
b101001100 @
b1100 ?
1,
#27888
0,
#27930
b101001101 @
b1101 ?
1,
#27972
0,
#28014
b101001110 @
b1110 ?
1,
#28056
0,
#28098
b101001111 @
b1111 ?
1,
#28140
0,
#28182
b101010000 @
b10000 ?
1,
#28224
0,
#28266
b101010001 @
b10001 ?
1,
#28308
0,
#28350
b101010010 @
b10010 ?
1,
#28392
0,
#28434
b101010011 @
b10011 ?
1,
#28476
0,
#28518
b101010100 @
b10100 ?
1,
#28560
0,
#28602
b101010101 @
b10101 ?
1,
#28644
0,
#28686
b101010110 @
b10110 ?
1,
#28728
0,
#28770
b101010111 @
b10111 ?
1,
#28812
0,
#28854
b101011000 @
b11000 ?
1,
#28896
0,
#28938
b101011001 @
b11001 ?
1,
#28980
0,
#29022
b101011010 @
b11010 ?
1,
#29064
0,
#29106
b101011011 @
b11011 ?
1,
#29148
0,
#29190
b101011100 @
b11100 ?
1,
#29232
0,
#29274
b101011101 @
b11101 ?
1,
#29316
0,
#29358
b101011110 @
b11110 ?
1,
#29400
0,
#29442
b101011111 @
b11111 ?
1,
#29484
0,
#29526
b101100000 @
b100000 ?
1,
#29568
0,
#29610
b101100001 @
b100001 ?
1,
#29652
0,
#29694
b101100010 @
b100010 ?
1,
#29736
0,
#29778
b101100011 @
b100011 ?
1,
#29820
0,
#29862
b101100100 @
b100100 ?
1,
#29904
0,
#29946
b101100101 @
b100101 ?
1,
#29988
0,
#30030
b101100110 @
b100110 ?
1,
#30072
0,
#30114
b101100111 @
b100111 ?
1,
#30156
0,
#30198
b0xxx B
bx C
b0xxxx E
b101101000 @
12
b0 ?
1,
#30240
0,
#30282
b101101001 @
b1 ?
1,
#30324
0,
#30366
b101101010 @
b10 ?
1,
#30408
0,
#30450
b101101011 @
b11 ?
1,
#30492
0,
#30534
b101101100 @
b100 ?
1,
#30576
0,
#30618
b101101101 @
b101 ?
1,
#30660
0,
#30702
b101101110 @
b110 ?
1,
#30744
0,
#30786
b101101111 @
b111 ?
1,
#30828
0,
#30870
b101110000 @
b1000 ?
1,
#30912
0,
#30954
b101110001 @
b1001 ?
1,
#30996
0,
#31038
b101110010 @
b1010 ?
1,
#31080
0,
#31122
b101110011 @
b1011 ?
1,
#31164
0,
#31206
b101110100 @
b1100 ?
1,
#31248
0,
#31290
b101110101 @
b1101 ?
1,
#31332
0,
#31374
b101110110 @
b1110 ?
1,
#31416
0,
#31458
b101110111 @
b1111 ?
1,
#31500
0,
#31542
b101111000 @
b10000 ?
1,
#31584
0,
#31626
b101111001 @
b10001 ?
1,
#31668
0,
#31710
b101111010 @
b10010 ?
1,
#31752
0,
#31794
b101111011 @
b10011 ?
1,
#31836
0,
#31878
b101111100 @
b10100 ?
1,
#31920
0,
#31962
b101111101 @
b10101 ?
1,
#32004
0,
#32046
b101111110 @
b10110 ?
1,
#32088
0,
#32130
b101111111 @
b10111 ?
1,
#32172
0,
#32214
b110000000 @
b11000 ?
1,
#32256
0,
#32298
b110000001 @
b11001 ?
1,
#32340
0,
#32382
b110000010 @
b11010 ?
1,
#32424
0,
#32466
b110000011 @
b11011 ?
1,
#32508
0,
#32550
b110000100 @
b11100 ?
1,
#32592
0,
#32634
b110000101 @
b11101 ?
1,
#32676
0,
#32718
b110000110 @
b11110 ?
1,
#32760
0,
#32802
b110000111 @
b11111 ?
1,
#32844
0,
#32886
b110001000 @
b100000 ?
1,
#32928
0,
#32970
b110001001 @
b100001 ?
1,
#33012
0,
#33054
b110001010 @
b100010 ?
1,
#33096
0,
#33138
b110001011 @
b100011 ?
1,
#33180
0,
#33222
b110001100 @
b100100 ?
1,
#33264
0,
#33306
b110001101 @
b100101 ?
1,
#33348
0,
#33390
b110001110 @
b100110 ?
1,
#33432
0,
#33474
b110001111 @
b100111 ?
1,
#33516
0,
#33558
b110010000 @
02
b0 ?
1,
#33600
0,
#33642
b110010001 @
b1 ?
1,
#33684
0,
#33726
b110010010 @
b10 ?
1,
#33768
0,
#33810
b110010011 @
b11 ?
1,
#33852
0,
#33894
b110010100 @
b100 ?
1,
#33936
0,
#33978
b110010101 @
b101 ?
1,
#34020
0,
#34062
b110010110 @
b110 ?
1,
#34104
0,
#34146
b110010111 @
b111 ?
1,
#34188
0,
#34230
b110011000 @
b1000 ?
1,
#34272
0,
#34314
b110011001 @
b1001 ?
1,
#34356
0,
#34398
b110011010 @
b1010 ?
1,
#34440
0,
#34482
b110011011 @
b1011 ?
1,
#34524
0,
#34566
b110011100 @
b1100 ?
1,
#34608
0,
#34650
b110011101 @
b1101 ?
1,
#34692
0,
#34734
b110011110 @
b1110 ?
1,
#34776
0,
#34818
b110011111 @
b1111 ?
1,
#34860
0,
#34902
b110100000 @
b10000 ?
1,
#34944
0,
#34986
b110100001 @
b10001 ?
1,
#35028
0,
#35070
b110100010 @
b10010 ?
1,
#35112
0,
#35154
b110100011 @
b10011 ?
1,
#35196
0,
#35238
b110100100 @
b10100 ?
1,
#35280
0,
#35322
b110100101 @
b10101 ?
1,
#35364
0,
#35406
b110100110 @
b10110 ?
1,
#35448
0,
#35490
b110100111 @
b10111 ?
1,
#35532
0,
#35574
b110101000 @
b11000 ?
1,
#35616
0,
#35658
b110101001 @
b11001 ?
1,
#35700
0,
#35742
b110101010 @
b11010 ?
1,
#35784
0,
#35826
b110101011 @
b11011 ?
1,
#35868
0,
#35910
b110101100 @
b11100 ?
1,
#35952
0,
#35994
b110101101 @
b11101 ?
1,
#36036
0,
#36078
b110101110 @
b11110 ?
1,
#36120
0,
#36162
b110101111 @
b11111 ?
1,
#36204
0,
#36246
b110110000 @
b100000 ?
1,
#36288
0,
#36330
b110110001 @
b100001 ?
1,
#36372
0,
#36414
b110110010 @
b100010 ?
1,
#36456
0,
#36498
b110110011 @
b100011 ?
1,
#36540
0,
#36582
b110110100 @
b100100 ?
1,
#36624
0,
#36666
b110110101 @
b100101 ?
1,
#36708
0,
#36750
b110110110 @
b100110 ?
1,
#36792
0,
#36834
b110110111 @
b100111 ?
1,
#36876
0,
#36918
bx B
bx E
b110111000 @
12
b0 ?
1,
#36960
0,
#37002
b110111001 @
b1 ?
1,
#37044
0,
#37086
b110111010 @
b10 ?
1,
#37128
0,
#37170
b110111011 @
b11 ?
1,
#37212
0,
#37254
b110111100 @
b100 ?
1,
#37296
0,
#37338
b110111101 @
b101 ?
1,
#37380
0,
#37422
b110111110 @
b110 ?
1,
#37464
0,
#37506
b110111111 @
b111 ?
1,
#37548
0,
#37590
b111000000 @
b1000 ?
1,
#37632
0,
#37674
b111000001 @
b1001 ?
1,
#37716
0,
#37758
b111000010 @
b1010 ?
1,
#37800
0,
#37842
b111000011 @
b1011 ?
1,
#37884
0,
#37926
b111000100 @
b1100 ?
1,
#37968
0,
#38010
b111000101 @
b1101 ?
1,
#38052
0,
#38094
b111000110 @
b1110 ?
1,
#38136
0,
#38178
b111000111 @
b1111 ?
1,
#38220
0,
#38262
b111001000 @
b10000 ?
1,
#38304
0,
#38346
b111001001 @
b10001 ?
1,
#38388
0,
#38430
b111001010 @
b10010 ?
1,
#38472
0,
#38514
b111001011 @
b10011 ?
1,
#38556
0,
#38598
b111001100 @
b10100 ?
1,
#38640
0,
#38682
b111001101 @
b10101 ?
1,
#38724
0,
#38766
b111001110 @
b10110 ?
1,
#38808
0,
#38850
b111001111 @
b10111 ?
1,
#38892
0,
#38934
b111010000 @
b11000 ?
1,
#38976
0,
#39018
b111010001 @
b11001 ?
1,
#39060
0,
#39102
b111010010 @
b11010 ?
1,
#39144
0,
#39186
b111010011 @
b11011 ?
1,
#39228
0,
#39270
b111010100 @
b11100 ?
1,
#39312
0,
#39354
b111010101 @
b11101 ?
1,
#39396
0,
#39438
b111010110 @
b11110 ?
1,
#39480
0,
#39522
b111010111 @
b11111 ?
1,
#39564
0,
