tests/3.vcd
$date
	Fri Mar 27 10:53:47 2026
$end
$version
	Icarus Verilog
$end
$timescale
	1ns
$end
$scope module test $end
$var wire 1 ! txDone_2 $end
$var wire 1 " txDone_1 $end
$var wire 1 # txBusy_2 $end
$var wire 1 $ txBusy_1 $end
$var wire 1 % rxErr_2 $end
$var wire 1 & rxErr_1 $end
$var wire 1 ' rxDone_2 $end
$var wire 1 ( rxDone_1 $end
$var wire 8 ) rxByte_2 [7:0] $end
$var wire 8 * rxByte_1 [7:0] $end
$var wire 1 + rxBusy_2 $end
$var wire 1 , rxBusy_1 $end
$var wire 1 - bus_wire_2_1 $end
$var wire 1 . bus_wire_1_2 $end
$var parameter 32 / CLOCK_FREQ $end
$var parameter 32 0 ENABLED_BAUD_CLOCK_STEPS $end
$var real 1 1 SIM_STEP_FREQ $end
$var real 1 2 SIM_TIMESTEP_FACTOR $end
$var parameter 32 3 offset_RX_OVERSAMPLE_RATE $end
$var reg 1 4 clk $end
$var reg 1 5 en_1 $end
$var reg 1 6 en_2 $end
$var reg 8 7 txByte_1 [7:0] $end
$var reg 8 8 txByte_2 [7:0] $end
$var reg 1 9 txStart_1 $end
$var reg 1 : txStart_2 $end
$scope module uart1 $end
$var wire 1 4 clk $end
$var wire 8 ; in [7:0] $end
$var wire 1 6 rxEn $end
$var wire 1 5 txEn $end
$var wire 1 9 txStart $end
$var wire 1 " txDone $end
$var wire 1 < txClk $end
$var wire 1 $ txBusy $end
$var wire 1 . tx $end
$var wire 1 & rxErr $end
$var wire 1 ( rxDone $end
$var wire 1 = rxClk $end
$var wire 1 , rxBusy $end
$var wire 1 - rx $end
$var wire 8 > out [7:0] $end
$var parameter 32 ? BAUD_RATE $end
$var parameter 32 @ CLOCK_RATE $end
$var parameter 32 A RX_OVERSAMPLE_RATE $end
$var parameter 32 B TURBO_FRAMES $end
$scope module generatorInst $end
$var wire 1 4 clk $end
$var parameter 32 C BAUD_RATE $end
$var parameter 32 D CLOCK_RATE $end
$var parameter 96 E RX_ACC_MAX $end
$var parameter 32 F RX_ACC_WIDTH $end
$var parameter 32 G RX_OVERSAMPLE_RATE $end
$var parameter 64 H TX_ACC_MAX $end
$var parameter 32 I TX_ACC_WIDTH $end
$var reg 1 = rxClk $end
$var reg 6 J rx_counter [5:0] $end
$var reg 1 < txClk $end
$var reg 10 K tx_counter [9:0] $end
$upscope $end
$scope module rxInst $end
$var wire 1 = clk $end
$var wire 1 6 en $end
$var wire 1 L in_sample $end
$var wire 4 M in_prior_hold_reg [3:0] $end
$var wire 4 N in_current_hold_reg [3:0] $end
$var wire 1 - in $end
$var reg 3 O bit_index [2:0] $end
$var reg 1 , busy $end
$var reg 1 ( done $end
$var reg 1 & err $end
$var reg 5 P in_hold_reg [4:0] $end
$var reg 2 Q in_reg [1:0] $end
$var reg 8 R out [7:0] $end
$var reg 5 S out_hold_count [4:0] $end
$var reg 8 T received_data [7:0] $end
$var reg 4 U sample_count [3:0] $end
$var reg 3 V state [2:0] $end
$upscope $end
$scope module txInst $end
$var wire 1 < clk $end
$var wire 1 5 en $end
$var wire 8 W in [7:0] $end
$var wire 1 9 start $end
$var parameter 32 X TURBO_FRAMES $end
$var reg 3 Y bit_index [2:0] $end
$var reg 1 $ busy $end
$var reg 1 " done $end
$var reg 8 Z in_data [7:0] $end
$var reg 1 . out $end
$var reg 3 [ state [2:0] $end
$upscope $end
$upscope $end
$scope module uart2 $end
$var wire 1 4 clk $end
$var wire 8 \ in [7:0] $end
$var wire 1 . rx $end
$var wire 1 5 rxEn $end
$var wire 1 6 txEn $end
$var wire 1 : txStart $end
$var wire 1 ! txDone $end
$var wire 1 ] txClk $end
$var wire 1 # txBusy $end
$var wire 1 - tx $end
$var wire 1 % rxErr $end
$var wire 1 ' rxDone $end
$var wire 1 ^ rxClk $end
$var wire 1 + rxBusy $end
$var wire 8 _ out [7:0] $end
$var parameter 32 ` BAUD_RATE $end
$var parameter 32 a CLOCK_RATE $end
$var parameter 32 b RX_OVERSAMPLE_RATE $end
$var parameter 32 c TURBO_FRAMES $end
$scope module generatorInst $end
$var wire 1 4 clk $end
$var parameter 32 d BAUD_RATE $end
$var parameter 32 e CLOCK_RATE $end
$var parameter 96 f RX_ACC_MAX $end
$var parameter 32 g RX_ACC_WIDTH $end
$var parameter 32 h RX_OVERSAMPLE_RATE $end
$var parameter 64 i TX_ACC_MAX $end
$var parameter 32 j TX_ACC_WIDTH $end
$var reg 1 ^ rxClk $end
$var reg 6 k rx_counter [5:0] $end
$var reg 1 ] txClk $end
$var reg 10 l tx_counter [9:0] $end
$upscope $end
$scope module rxInst $end
$var wire 1 ^ clk $end
$var wire 1 5 en $end
$var wire 1 . in $end
$var wire 1 m in_sample $end
$var wire 4 n in_prior_hold_reg [3:0] $end
$var wire 4 o in_current_hold_reg [3:0] $end
$var reg 3 p bit_index [2:0] $end
$var reg 1 + busy $end
$var reg 1 ' done $end
$var reg 1 % err $end
$var reg 5 q in_hold_reg [4:0] $end
$var reg 2 r in_reg [1:0] $end
$var reg 8 s out [7:0] $end
$var reg 5 t out_hold_count [4:0] $end
$var reg 8 u received_data [7:0] $end
$var reg 4 v sample_count [3:0] $end
$var reg 3 w state [2:0] $end
$upscope $end
$scope module txInst $end
$var wire 1 ] clk $end
$var wire 1 6 en $end
$var wire 8 x in [7:0] $end
$var wire 1 : start $end
$var parameter 32 y TURBO_FRAMES $end
$var reg 3 z bit_index [2:0] $end
$var reg 1 # busy $end
$var reg 1 ! done $end
$var reg 8 { in_data [7:0] $end
$var reg 1 - out $end
$var reg 3 | state [2:0] $end
$upscope $end
$upscope $end
$scope begin $unm_blk_67 $end
$var integer 32 } t [31:0] $end
$upscope $end
$upscope $end
$enddefinitions $end
$comment Show the parameter values. $end
$dumpall
b0 y
b1010 j
b1001110001 i
b1101 h
b110 g
b110000 f
b101101110001101100000000 e
b10010110000000 d
b0 c
b1101 b
b101101110001101100000000 a
b10010110000000 `
b0 X
b1010 I
b1001110001 H
b1101 G
b110 F
b110000 E
b101101110001101100000000 D
b10010110000000 C
b0 B
b1101 A
b101101110001101100000000 @
b10010110000000 ?
b1101 3
r0.4166666666666667 2
r5000000 1
b10001 0
b101101110001101100000000 /
$end
#0
$dumpvars
bx }
b0 |
b0 {
b0 z
bx x
b0 w
b0 v
b0 u
b0 t
bx s
b0 r
b0 q
b0 p
b0 o
b0 n
0m
b0 l
b0 k
bx _
0^
0]
bx \
b0 [
b0 Z
b0 Y
bx W
b0 V
b0 U
b0 T
b0 S
bx R
b0 Q
b0 P
b0 O
b0 N
b0 M
0L
b0 K
b0 J
bx >
0=
0<
bx ;
x:
x9
bx 8
bx 7
x6
x5
04
x.
x-
x,
x+
bx *
bx )
x(
x'
x&
x%
x$
x#
x"
x!
$end
#42
b1 K
b1 J
b1 l
b1 k
14
#84
04
#126
b10 l
b10 k
b10 K
b10 J
14
#168
04
#210
b11 K
b11 J
b11 l
b11 k
14
#252
04
#294
b100 l
b100 k
b100 K
b100 J
14
#336
04
#378
b101 K
b101 J
b101 l
b101 k
14
#420
04
#462
b110 l
b110 k
b110 K
b110 J
14
#504
04
#546
b111 K
b111 J
b111 l
b111 k
14
#588
04
#630
b1000 l
b1000 k
b1000 K
b1000 J
14
#672
04
#714
b1001 K
b1001 J
b1001 l
b1001 k
14
#756
04
#798
b1010 l
b1010 k
b1010 K
b1010 J
14
#840
04
#882
b1011 K
b1011 J
b1011 l
b1011 k
14
#924
04
#966
b1100 l
b1100 k
b1100 K
b1100 J
14
#1008
04
#1050
b1101 K
b1101 J
b1101 l
b1101 k
14
#1092
04
#1134
b1110 l
b1110 k
b1110 K
b1110 J
14
#1176
04
#1218
b1111 K
b1111 J
b1111 l
b1111 k
14
#1260
04
#1302
b10000 l
b10000 k
b10000 K
b10000 J
14
#1344
04
#1386
b10001 K
b10001 J
b10001 l
b10001 k
14
#1428
04
#1470
b10010 l
b10010 k
b10010 K
b10010 J
14
#1512
04
#1554
b10011 K
b10011 J
b10011 l
b10011 k
14
#1596
04
#1638
b10100 l
b10100 k
b10100 K
b10100 J
14
#1680
04
#1722
b10101 K
b10101 J
b10101 l
b10101 k
14
#1764
04
#1806
b10110 l
b10110 k
b10110 K
b10110 J
14
#1848
04
#1890
b10111 K
b10111 J
b10111 l
b10111 k
14
#1932
04
#1974
b11000 l
b11000 k
b11000 K
b11000 J
14
#2016
04
#2058
b11001 K
b11001 J
b11001 l
b11001 k
14
#2100
04
#2142
b11010 l
b11010 k
b11010 K
b11010 J
14
#2184
04
#2226
b11011 K
b11011 J
b11011 l
b11011 k
14
#2268
04
#2310
b11100 l
b11100 k
b11100 K
b11100 J
14
#2352
04
#2394
b11101 K
b11101 J
b11101 l
b11101 k
14
#2436
04
#2478
b11110 l
b11110 k
b11110 K
b11110 J
14
#2520
04
#2562
b11111 K
b11111 J
b11111 l
b11111 k
14
#2604
04
#2646
b100000 l
b100000 k
b100000 K
b100000 J
14
#2688
04
#2730
b100001 K
b100001 J
b100001 l
b100001 k
14
#2772
04
#2814
b100010 l
b100010 k
b100010 K
b100010 J
14
#2856
04
#2898
b100011 K
b100011 J
b100011 l
b100011 k
14
#2940
04
#2982
b100100 l
b100100 k
b100100 K
b100100 J
14
#3024
04
#3066
b100101 K
b100101 J
b100101 l
b100101 k
14
#3108
04
#3150
b100110 l
b100110 k
b100110 K
b100110 J
14
#3192
04
#3234
b100111 K
b100111 J
b100111 l
b100111 k
14
#3276
04
#3318
b101000 l
b101000 k
b101000 K
b101000 J
14
#3360
04
#3402
b101001 K
b101001 J
b101001 l
b101001 k
14
#3444
04
#3486
b101010 l
b101010 k
b101010 K
b101010 J
14
#3528
04
#3570
b101011 K
b101011 J
b101011 l
b101011 k
14
#3612
04
#3654
b101100 l
b101100 k
b101100 K
b101100 J
14
#3696
04
#3738
b101101 K
b101101 J
b101101 l
b101101 k
14
#3780
04
#3822
b101110 l
b101110 k
b101110 K
b101110 J
14
#3864
04
#3906
b101111 K
b101111 J
b101111 l
b101111 k
14
#3948
04
#3990
b110000 l
b110000 k
b110000 K
b110000 J
14
#4032
04
#4074
b0x Q
b0 *
b0 >
b0 R
0&
0(
0,
b0x r
b0 )
b0 _
b0 s
0%
0'
0+
b110001 K
1=
b0 J
b110001 l
1^
b0 k
14
#4116
04
#4158
b110010 l
b1 k
b110010 K
b1 J
14
#4200
04
#4242
b110011 K
b10 J
b110011 l
b10 k
14
#4284
04
#4326
b110100 l
b11 k
b110100 K
b11 J
14
#4368
04
#4410
b110101 K
b100 J
b110101 l
b100 k
14
#4452
04
#4494
b110110 l
b101 k
b110110 K
b101 J
14
#4536
04
#4578
b110111 K
b110 J
b110111 l
b110 k
14
#4620
04
#4662
b111000 l
b111 k
b111000 K
b111 J
14
#4704
04
#4746
b111001 K
b1000 J
b111001 l
b1000 k
14
#4788
04
#4830
b111010 l
b1001 k
b111010 K
b1001 J
14
#4872
04
#4914
b111011 K
b1010 J
b111011 l
b1010 k
14
#4956
04
#4998
b111100 l
b1011 k
b111100 K
b1011 J
14
#5040
04
#5082
b111101 K
b1100 J
b111101 l
b1100 k
14
#5124
04
#5166
b111110 l
b1101 k
b111110 K
b1101 J
14
#5208
04
#5250
b111111 K
b1110 J
b111111 l
b1110 k
14
#5292
04
#5334
b1000000 l
b1111 k
b1000000 K
b1111 J
14
#5376
04
#5418
b1000001 K
b10000 J
b1000001 l
b10000 k
14
#5460
04
#5502
b1000010 l
b10001 k
b1000010 K
b10001 J
14
#5544
04
#5586
b1000011 K
b10010 J
b1000011 l
b10010 k
14
#5628
04
#5670
b1000100 l
b10011 k
b1000100 K
b10011 J
14
#5712
04
#5754
b1000101 K
b10100 J
b1000101 l
b10100 k
14
#5796
04
#5838
b1000110 l
b10101 k
b1000110 K
b10101 J
14
#5880
04
#5922
b1000111 K
b10110 J
b1000111 l
b10110 k
14
#5964
04
#6006
b1001000 l
b10111 k
b1001000 K
b10111 J
14
#6048
04
#6090
b1001001 K
b11000 J
b1001001 l
b11000 k
14
#6132
04
#6174
b1001010 l
b11001 k
b1001010 K
b11001 J
14
#6216
04
#6258
b1001011 K
b11010 J
b1001011 l
b11010 k
14
#6300
04
#6342
b1001100 l
b11011 k
b1001100 K
b11011 J
14
#6384
04
#6426
b1001101 K
b11100 J
b1001101 l
b11100 k
14
#6468
04
#6510
b1001110 l
b11101 k
b1001110 K
b11101 J
14
#6552
04
#6594
b1001111 K
b11110 J
b1001111 l
b11110 k
14
#6636
04
#6678
b1010000 l
b11111 k
b1010000 K
b11111 J
14
#6720
04
#6762
b1010001 K
b100000 J
b1010001 l
b100000 k
14
#6804
04
#6846
b1010010 l
b100001 k
b1010010 K
b100001 J
14
#6888
04
#6930
b1010011 K
b100010 J
b1010011 l
b100010 k
14
#6972
04
#7014
b1010100 l
b100011 k
b1010100 K
b100011 J
14
#7056
04
#7098
b1010101 K
b100100 J
b1010101 l
b100100 k
14
#7140
04
#7182
b1010110 l
b100101 k
b1010110 K
b100101 J
14
#7224
04
#7266
b1010111 K
b100110 J
b1010111 l
b100110 k
14
#7308
04
#7350
b1011000 l
b100111 k
b1011000 K
b100111 J
14
#7392
04
#7434
b1011001 K
b101000 J
b1011001 l
b101000 k
14
#7476
04
#7518
b1011010 l
b101001 k
b1011010 K
b101001 J
14
#7560
04
#7602
b1011011 K
b101010 J
b1011011 l
b101010 k
14
#7644
04
#7686
b1011100 l
b101011 k
b1011100 K
b101011 J
14
#7728
04
#7770
b1011101 K
b101100 J
b1011101 l
b101100 k
14
#7812
04
#7854
b1011110 l
b101101 k
b1011110 K
b101101 J
14
#7896
04
#7938
b1011111 K
b101110 J
b1011111 l
b101110 k
14
#7980
04
#8022
b1100000 l
b101111 k
b1100000 K
b101111 J
14
#8064
04
#8106
b1100001 K
b110000 J
b1100001 l
b110000 k
14
#8148
04
#8190
b1100010 l
0^
b0 k
b1100010 K
0=
b0 J
14
#8232
04
#8274
b1100011 K
b1 J
b1100011 l
b1 k
14
#8316
04
#8358
b1100100 l
b10 k
b1100100 K
b10 J
14
#8400
04
#8442
b1100101 K
b11 J
b1100101 l
b11 k
14
#8484
04
#8526
b1100110 l
b100 k
b1100110 K
b100 J
14
#8568
04
#8610
b1100111 K
b101 J
b1100111 l
b101 k
14
#8652
04
#8694
b1101000 l
b110 k
b1101000 K
b110 J
14
#8736
04
#8778
b1101001 K
b111 J
b1101001 l
b111 k
14
#8820
04
#8862
b1101010 l
b1000 k
b1101010 K
b1000 J
14
#8904
04
#8946
b1101011 K
b1001 J
b1101011 l
b1001 k
14
#8988
04
#9030
b1101100 l
b1010 k
b1101100 K
b1010 J
14
#9072
04
#9114
b1101101 K
b1011 J
b1101101 l
b1011 k
14
#9156
04
#9198
b1101110 l
b1100 k
b1101110 K
b1100 J
14
#9240
04
#9282
b1101111 K
b1101 J
b1101111 l
b1101 k
14
#9324
04
#9366
b1110000 l
b1110 k
b1110000 K
b1110 J
14
#9408
04
#9450
b1110001 K
b1111 J
b1110001 l
b1111 k
14
#9492
04
#9534
b1110010 l
b10000 k
b1110010 K
b10000 J
14
#9576
04
#9618
b1110011 K
b10001 J
b1110011 l
b10001 k
14
#9660
04
#9702
b1110100 l
b10010 k
b1110100 K
b10010 J
14
#9744
04
#9786
b1110101 K
b10011 J
b1110101 l
b10011 k
14
#9828
04
#9870
b1110110 l
b10100 k
b1110110 K
b10100 J
14
#9912
04
#9954
b1110111 K
b10101 J
b1110111 l
b10101 k
14
#9996
04
#10038
b1111000 l
b10110 k
b1111000 K
b10110 J
14
#10080
04
#10122
b1111001 K
b10111 J
b1111001 l
b10111 k
14
#10164
04
#10206
b1111010 l
b11000 k
b1111010 K
b11000 J
14
#10248
04
#10290
b1111011 K
b11001 J
b1111011 l
b11001 k
14
#10332
04
#10374
b1111100 l
b11010 k
b1111100 K
b11010 J
14
#10416
04
#10458
b1111101 K
b11011 J
b1111101 l
b11011 k
14
#10500
04
#10542
b1111110 l
b11100 k
b1111110 K
b11100 J
14
#10584
04
#10626
b1111111 K
b11101 J
b1111111 l
b11101 k
14
#10668
04
#10710
b10000000 l
b11110 k
b10000000 K
b11110 J
14
#10752
04
#10794
b10000001 K
b11111 J
b10000001 l
b11111 k
14
#10836
04
#10878
b10000010 l
b100000 k
b10000010 K
b100000 J
14
#10920
04
#10962
b10000011 K
b100001 J
b10000011 l
b100001 k
14
#11004
04
#11046
b10000100 l
b100010 k
b10000100 K
b100010 J
14
#11088
04
#11130
b10000101 K
b100011 J
b10000101 l
b100011 k
14
#11172
04
#11214
b10000110 l
b100100 k
b10000110 K
b100100 J
14
#11256
04
#11298
b10000111 K
b100101 J
b10000111 l
b100101 k
14
#11340
04
#11382
b10001000 l
b100110 k
b10001000 K
b100110 J
14
#11424
04
#11466
b10001001 K
b100111 J
b10001001 l
b100111 k
14
#11508
04
#11550
b10001010 l
b101000 k
b10001010 K
b101000 J
14
#11592
04
#11634
b10001011 K
b101001 J
b10001011 l
b101001 k
14
#11676
04
#11718
b10001100 l
b101010 k
b10001100 K
b101010 J
14
#11760
04
#11802
b10001101 K
b101011 J
b10001101 l
b101011 k
14
#11844
04
#11886
b10001110 l
b101100 k
b10001110 K
b101100 J
14
#11928
04
#11970
b10001111 K
b101101 J
b10001111 l
b101101 k
14
#12012
04
#12054
b10010000 l
b101110 k
b10010000 K
b101110 J
14
#12096
04
#12138
b10010001 K
b101111 J
b10010001 l
b101111 k
14
#12180
04
#12222
b10010010 l
b110000 k
b10010010 K
b110000 J
14
#12264
04
#12306
b0x N
xL
b0x o
xm
b0x P
bx Q
b0x q
bx r
b10010011 K
1=
b0 J
b10010011 l
1^
b0 k
14
#12348
04
#12390
b10010100 l
b1 k
b10010100 K
b1 J
14
#12432
04
#12474
b10010101 K
b10 J
b10010101 l
b10 k
14
#12516
04
#12558
b10010110 l
b11 k
b10010110 K
b11 J
14
#12600
04
#12642
b10010111 K
b100 J
b10010111 l
b100 k
14
#12684
04
#12726
b10011000 l
b101 k
b10011000 K
b101 J
14
#12768
04
#12810
b10011001 K
b110 J
b10011001 l
b110 k
14
#12852
04
#12894
b10011010 l
b111 k
b10011010 K
b111 J
14
#12936
04
#12978
b10011011 K
b1000 J
b10011011 l
b1000 k
14
#13020
04
#13062
b10011100 l
b1001 k
b10011100 K
b1001 J
14
#13104
04
#13146
b10011101 K
b1010 J
b10011101 l
b1010 k
14
#13188
04
#13230
b10011110 l
b1011 k
b10011110 K
b1011 J
14
#13272
04
#13314
b10011111 K
b1100 J
b10011111 l
b1100 k
14
#13356
04
#13398
b10100000 l
b1101 k
b10100000 K
b1101 J
14
#13440
04
#13482
b10100001 K
b1110 J
b10100001 l
b1110 k
14
#13524
04
#13566
b10100010 l
b1111 k
b10100010 K
b1111 J
14
#13608
04
#13650
b10100011 K
b10000 J
b10100011 l
b10000 k
14
#13692
04
#13734
b10100100 l
b10001 k
b10100100 K
b10001 J
14
#13776
04
#13818
b10100101 K
b10010 J
b10100101 l
b10010 k
14
#13860
04
#13902
b10100110 l
b10011 k
b10100110 K
b10011 J
14
#13944
04
#13986
b10100111 K
b10100 J
b10100111 l
b10100 k
14
#14028
04
#14070
b10101000 l
b10101 k
b10101000 K
b10101 J
14
#14112
04
#14154
b10101001 K
b10110 J
b10101001 l
b10110 k
14
#14196
04
#14238
b10101010 l
b10111 k
b10101010 K
b10111 J
14
#14280
04
#14322
b10101011 K
b11000 J
b10101011 l
b11000 k
14
#14364
04
#14406
b10101100 l
b11001 k
b10101100 K
b11001 J
14
#14448
04
#14490
b10101101 K
b11010 J
b10101101 l
b11010 k
14
#14532
04
#14574
b10101110 l
b11011 k
b10101110 K
b11011 J
14
#14616
04
#14658
b10101111 K
b11100 J
b10101111 l
b11100 k
14
#14700
04
#14742
b10110000 l
b11101 k
b10110000 K
b11101 J
14
#14784
04
#14826
b10110001 K
b11110 J
b10110001 l
b11110 k
14
#14868
04
#14910
b10110010 l
b11111 k
b10110010 K
b11111 J
14
#14952
04
#14994
b10110011 K
b100000 J
b10110011 l
b100000 k
14
#15036
04
#15078
b10110100 l
b100001 k
b10110100 K
b100001 J
14
#15120
04
#15162
b10110101 K
b100010 J
b10110101 l
b100010 k
14
#15204
04
#15246
b10110110 l
b100011 k
b10110110 K
b100011 J
14
#15288
04
#15330
b10110111 K
b100100 J
b10110111 l
b100100 k
14
#15372
04
#15414
b10111000 l
b100101 k
b10111000 K
b100101 J
14
#15456
04
#15498
b10111001 K
b100110 J
b10111001 l
b100110 k
14
#15540
04
#15582
b10111010 l
b100111 k
b10111010 K
b100111 J
14
#15624
04
#15666
b10111011 K
b101000 J
b10111011 l
b101000 k
14
#15708
04
#15750
b10111100 l
b101001 k
b10111100 K
b101001 J
14
#15792
04
#15834
b10111101 K
b101010 J
b10111101 l
b101010 k
14
#15876
04
#15918
b10111110 l
b101011 k
b10111110 K
b101011 J
14
#15960
04
#16002
b10111111 K
b101100 J
b10111111 l
b101100 k
14
#16044
04
#16086
b11000000 l
b101101 k
b11000000 K
b101101 J
14
#16128
04
#16170
b11000001 K
b101110 J
b11000001 l
b101110 k
14
#16212
04
#16254
b11000010 l
b101111 k
b11000010 K
b101111 J
14
#16296
04
#16338
b11000011 K
b110000 J
b11000011 l
b110000 k
14
#16380
04
#16422
b11000100 l
0^
b0 k
b11000100 K
0=
b0 J
14
#16464
04
#16506
b11000101 K
b1 J
b11000101 l
b1 k
14
#16548
04
#16590
b11000110 l
b10 k
b11000110 K
b10 J
14
#16632
04
#16674
b11000111 K
b11 J
b11000111 l
b11 k
14
#16716
04
#16758
b11001000 l
b100 k
b11001000 K
b100 J
14
#16800
04
#16842
b11001001 K
b101 J
b11001001 l
b101 k
14
#16884
04
#16926
b11001010 l
b110 k
b11001010 K
b110 J
14
#16968
04
#17010
b11001011 K
b111 J
b11001011 l
b111 k
14
#17052
04
#17094
b11001100 l
b1000 k
b11001100 K
b1000 J
14
#17136
04
#17178
b11001101 K
b1001 J
b11001101 l
b1001 k
14
#17220
04
#17262
b11001110 l
b1010 k
b11001110 K
b1010 J
14
#17304
04
#17346
b11001111 K
b1011 J
b11001111 l
b1011 k
14
#17388
04
#17430
b11010000 l
b1100 k
b11010000 K
b1100 J
14
#17472
04
#17514
b11010001 K
b1101 J
b11010001 l
b1101 k
14
#17556
04
#17598
b11010010 l
b1110 k
b11010010 K
b1110 J
14
#17640
04
#17682
b11010011 K
b1111 J
b11010011 l
b1111 k
14
#17724
04
#17766
b11010100 l
b10000 k
b11010100 K
b10000 J
14
#17808
04
#17850
b11010101 K
b10001 J
b11010101 l
b10001 k
14
#17892
04
#17934
b11010110 l
b10010 k
b11010110 K
b10010 J
14
#17976
04
#18018
b11010111 K
b10011 J
b11010111 l
b10011 k
14
#18060
04
#18102
b11011000 l
b10100 k
b11011000 K
b10100 J
14
#18144
04
#18186
b11011001 K
b10101 J
b11011001 l
b10101 k
14
#18228
04
#18270
b11011010 l
b10110 k
b11011010 K
b10110 J
14
#18312
04
#18354
b11011011 K
b10111 J
b11011011 l
b10111 k
14
#18396
04
#18438
b11011100 l
b11000 k
b11011100 K
b11000 J
14
#18480
04
#18522
b11011101 K
b11001 J
b11011101 l
b11001 k
14
#18564
04
#18606
b11011110 l
b11010 k
b11011110 K
b11010 J
14
#18648
04
#18690
b11011111 K
b11011 J
b11011111 l
b11011 k
14
#18732
04
#18774
b11100000 l
b11100 k
b11100000 K
b11100 J
14
#18816
04
#18858
b11100001 K
b11101 J
b11100001 l
b11101 k
14
#18900
04
#18942
b11100010 l
b11110 k
b11100010 K
b11110 J
14
#18984
04
#19026
b11100011 K
b11111 J
b11100011 l
b11111 k
14
#19068
04
#19110
b11100100 l
b100000 k
b11100100 K
b100000 J
14
#19152
04
#19194
b11100101 K
b100001 J
b11100101 l
b100001 k
14
#19236
04
#19278
b11100110 l
b100010 k
b11100110 K
b100010 J
14
#19320
04
#19362
b11100111 K
b100011 J
b11100111 l
b100011 k
14
#19404
04
#19446
b11101000 l
b100100 k
b11101000 K
b100100 J
14
#19488
04
#19530
b11101001 K
b100101 J
b11101001 l
b100101 k
14
#19572
04
#19614
b11101010 l
b100110 k
b11101010 K
b100110 J
14
#19656
04
#19698
b11101011 K
b100111 J
b11101011 l
b100111 k
14
#19740
04
#19782
b11101100 l
b101000 k
b11101100 K
b101000 J
14
#19824
04
#19866
b11101101 K
b101001 J
b11101101 l
b101001 k
14
#19908
04
#19950
b11101110 l
b101010 k
b11101110 K
b101010 J
14
#19992
04
#20034
b11101111 K
b101011 J
b11101111 l
b101011 k
14
#20076
04
#20118
b11110000 l
b101100 k
b11110000 K
b101100 J
14
#20160
04
#20202
b11110001 K
b101101 J
b11110001 l
b101101 k
14
#20244
04
#20286
b11110010 l
b101110 k
b11110010 K
b101110 J
14
#20328
04
#20370
b11110011 K
b101111 J
b11110011 l
b101111 k
14
#20412
04
#20454
b11110100 l
b110000 k
b11110100 K
b110000 J
14
#20496
04
#20538
b0x M
b0xx N
b0x n
b0xx o
b0xx P
b0xx q
b11110101 K
1=
b0 J
b11110101 l
1^
b0 k
14
#20580
04
#20622
b11110110 l
b1 k
b11110110 K
b1 J
14
#20664
04
#20706
b11110111 K
b10 J
b11110111 l
b10 k
14
#20748
04
#20790
b11111000 l
b11 k
b11111000 K
b11 J
14
#20832
04
#20874
b11111001 K
b100 J
b11111001 l
b100 k
14
#20916
04
#20958
b11111010 l
b101 k
b11111010 K
b101 J
14
#21000
04
#21042
b11111011 K
b110 J
b11111011 l
b110 k
14
#21084
04
#21126
b11111100 l
b111 k
b11111100 K
b111 J
14
#21168
04
#21210
b11111101 K
b1000 J
b11111101 l
b1000 k
14
#21252
04
#21294
b11111110 l
b1001 k
b11111110 K
b1001 J
14
#21336
04
#21378
b11111111 K
b1010 J
b11111111 l
b1010 k
14
#21420
04
#21462
b100000000 l
b1011 k
b100000000 K
b1011 J
14
#21504
04
#21546
b100000001 K
b1100 J
b100000001 l
b1100 k
14
#21588
04
#21630
b100000010 l
b1101 k
b100000010 K
b1101 J
14
#21672
04
#21714
b100000011 K
b1110 J
b100000011 l
b1110 k
14
#21756
04
#21798
b100000100 l
b1111 k
b100000100 K
b1111 J
14
#21840
04
#21882
b100000101 K
b10000 J
b100000101 l
b10000 k
14
#21924
04
#21966
b100000110 l
b10001 k
b100000110 K
b10001 J
14
#22008
04
#22050
b100000111 K
b10010 J
b100000111 l
b10010 k
14
#22092
04
#22134
b100001000 l
b10011 k
b100001000 K
b10011 J
14
#22176
04
#22218
b100001001 K
b10100 J
b100001001 l
b10100 k
14
#22260
04
#22302
b100001010 l
b10101 k
b100001010 K
b10101 J
14
#22344
04
#22386
b100001011 K
b10110 J
b100001011 l
b10110 k
14
#22428
04
#22470
b100001100 l
b10111 k
b100001100 K
b10111 J
14
#22512
04
#22554
b100001101 K
b11000 J
b100001101 l
b11000 k
14
#22596
04
#22638
b100001110 l
b11001 k
b100001110 K
b11001 J
14
#22680
04
#22722
b100001111 K
b11010 J
b100001111 l
b11010 k
14
#22764
04
#22806
b100010000 l
b11011 k
b100010000 K
b11011 J
14
#22848
04
#22890
b100010001 K
b11100 J
b100010001 l
b11100 k
14
#22932
04
#22974
b100010010 l
b11101 k
b100010010 K
b11101 J
14
#23016
04
#23058
b100010011 K
b11110 J
b100010011 l
b11110 k
14
#23100
04
#23142
b100010100 l
b11111 k
b100010100 K
b11111 J
14
#23184
04
#23226
b100010101 K
b100000 J
b100010101 l
b100000 k
14
#23268
04
#23310
b100010110 l
b100001 k
b100010110 K
b100001 J
14
#23352
04
#23394
b100010111 K
b100010 J
b100010111 l
b100010 k
14
#23436
04
#23478
b100011000 l
b100011 k
b100011000 K
b100011 J
14
#23520
04
#23562
b100011001 K
b100100 J
b100011001 l
b100100 k
14
#23604
04
#23646
b100011010 l
b100101 k
b100011010 K
b100101 J
14
#23688
04
#23730
b100011011 K
b100110 J
b100011011 l
b100110 k
14
#23772
04
#23814
b100011100 l
b100111 k
b100011100 K
b100111 J
14
#23856
04
#23898
b100011101 K
b101000 J
b100011101 l
b101000 k
14
#23940
04
#23982
b100011110 l
b101001 k
b100011110 K
b101001 J
14
#24024
04
#24066
b100011111 K
b101010 J
b100011111 l
b101010 k
14
#24108
04
#24150
b100100000 l
b101011 k
b100100000 K
b101011 J
14
#24192
04
#24234
b100100001 K
b101100 J
b100100001 l
b101100 k
14
#24276
04
#24318
b100100010 l
b101101 k
b100100010 K
b101101 J
14
#24360
04
#24402
b100100011 K
b101110 J
b100100011 l
b101110 k
14
#24444
04
#24486
b100100100 l
b101111 k
b100100100 K
b101111 J
14
#24528
04
#24570
b100100101 K
b110000 J
b100100101 l
b110000 k
14
#24612
04
#24654
b100100110 l
0^
b0 k
b100100110 K
0=
b0 J
14
#24696
04
#24738
b100100111 K
b1 J
b100100111 l
b1 k
14
#24780
04
#24822
b100101000 l
b10 k
b100101000 K
b10 J
14
#24864
04
#24906
b100101001 K
b11 J
b100101001 l
b11 k
14
#24948
04
#24990
b100101010 l
b100 k
b100101010 K
b100 J
14
#25032
04
#25074
b100101011 K
b101 J
b100101011 l
b101 k
14
#25116
04
#25158
b100101100 l
b110 k
b100101100 K
b110 J
14
#25200
04
#25242
b100101101 K
b111 J
b100101101 l
b111 k
14
#25284
04
#25326
b100101110 l
b1000 k
b100101110 K
b1000 J
14
#25368
04
#25410
b100101111 K
b1001 J
b100101111 l
b1001 k
14
#25452
04
#25494
b100110000 l
b1010 k
b100110000 K
b1010 J
14
#25536
04
#25578
b100110001 K
b1011 J
b100110001 l
b1011 k
14
#25620
04
#25662
b100110010 l
b1100 k
b100110010 K
b1100 J
14
#25704
04
#25746
b100110011 K
b1101 J
b100110011 l
b1101 k
14
#25788
04
